2016-04-17 17:12:35,457 - ************************************************************** 
2016-04-17 17:12:35,457 - Starting Jakarta Velocity v1.4
2016-04-17 17:12:35,457 - RuntimeInstance initializing.
2016-04-17 17:12:35,457 - Default Properties File: org\apache\velocity\runtime\defaults\velocity.properties
2016-04-17 17:12:35,457 - Trying to use logger class org.apache.velocity.runtime.log.SimpleLog4JLogSystem
2016-04-17 17:12:35,457 - Using logger class org.apache.velocity.runtime.log.SimpleLog4JLogSystem
2016-04-17 17:12:35,460 - Default ResourceManager initializing. (class org.apache.velocity.runtime.resource.ResourceManagerImpl)
2016-04-17 17:12:35,461 - Resource Loader Instantiated: org.apache.velocity.runtime.resource.loader.ClasspathResourceLoader
2016-04-17 17:12:35,461 - ClasspathResourceLoader : initialization starting.
2016-04-17 17:12:35,461 - ClasspathResourceLoader : initialization complete.
2016-04-17 17:12:35,462 - ResourceCache : initialized. (class org.apache.velocity.runtime.resource.ResourceCacheImpl)
2016-04-17 17:12:35,462 - Default ResourceManager initialization complete.
2016-04-17 17:12:35,464 - Loaded System Directive: org.apache.velocity.runtime.directive.Literal
2016-04-17 17:12:35,465 - Loaded System Directive: org.apache.velocity.runtime.directive.Macro
2016-04-17 17:12:35,466 - Loaded System Directive: org.apache.velocity.runtime.directive.Parse
2016-04-17 17:12:35,468 - Loaded System Directive: org.apache.velocity.runtime.directive.Include
2016-04-17 17:12:35,579 - Loaded System Directive: org.apache.velocity.runtime.directive.Foreach
2016-04-17 17:12:35,632 - Created: 20 parsers.
2016-04-17 17:12:35,636 - Velocimacro : initialization starting.
2016-04-17 17:12:35,637 - Velocimacro : adding VMs from VM library template : VM_global_library.vm
2016-04-17 17:12:35,642 - ResourceManager : unable to find resource 'VM_global_library.vm' in any resource loader.
2016-04-17 17:12:35,642 - Velocimacro : error using  VM library template VM_global_library.vm : org.apache.velocity.exception.ResourceNotFoundException: Unable to find resource 'VM_global_library.vm'
2016-04-17 17:12:35,642 - Velocimacro :  VM library template macro registration complete.
2016-04-17 17:12:35,642 - Velocimacro : allowInline = true : VMs can be defined inline in templates
2016-04-17 17:12:35,642 - Velocimacro : allowInlineToOverride = false : VMs defined inline may NOT replace previous VM definitions
2016-04-17 17:12:35,642 - Velocimacro : allowInlineLocal = false : VMs defined inline will be  global in scope if allowed.
2016-04-17 17:12:35,642 - Velocimacro : messages on  : VM system will output logging messages
2016-04-17 17:12:35,642 - Velocimacro : autoload off  : VM system will not automatically reload global library macros
2016-04-17 17:12:35,642 - Velocimacro : initialization complete.
2016-04-17 17:12:35,642 - Velocity successfully started.
2016-04-17 17:17:28,905 - SimpleLog4JLogSystem initialized using logfile 'velocity.log'
2016-04-17 17:17:28,906 - ************************************************************** 
2016-04-17 17:17:28,906 - Starting Jakarta Velocity v1.4
2016-04-17 17:17:28,906 - RuntimeInstance initializing.
2016-04-17 17:17:28,906 - Default Properties File: org\apache\velocity\runtime\defaults\velocity.properties
2016-04-17 17:17:28,906 - Trying to use logger class org.apache.velocity.runtime.log.SimpleLog4JLogSystem
2016-04-17 17:17:28,906 - Using logger class org.apache.velocity.runtime.log.SimpleLog4JLogSystem
2016-04-17 17:17:28,908 - Default ResourceManager initializing. (class org.apache.velocity.runtime.resource.ResourceManagerImpl)
2016-04-17 17:17:28,910 - Resource Loader Instantiated: org.apache.velocity.runtime.resource.loader.ClasspathResourceLoader
2016-04-17 17:17:28,910 - ClasspathResourceLoader : initialization starting.
2016-04-17 17:17:28,910 - ClasspathResourceLoader : initialization complete.
2016-04-17 17:17:28,911 - ResourceCache : initialized. (class org.apache.velocity.runtime.resource.ResourceCacheImpl)
2016-04-17 17:17:28,911 - Default ResourceManager initialization complete.
2016-04-17 17:17:28,913 - Loaded System Directive: org.apache.velocity.runtime.directive.Literal
2016-04-17 17:17:28,914 - Loaded System Directive: org.apache.velocity.runtime.directive.Macro
2016-04-17 17:17:28,916 - Loaded System Directive: org.apache.velocity.runtime.directive.Parse
2016-04-17 17:17:28,918 - Loaded System Directive: org.apache.velocity.runtime.directive.Include
2016-04-17 17:17:28,919 - Loaded System Directive: org.apache.velocity.runtime.directive.Foreach
2016-04-17 17:17:28,938 - Created: 20 parsers.
2016-04-17 17:17:28,944 - Velocimacro : initialization starting.
2016-04-17 17:17:28,944 - Velocimacro : adding VMs from VM library template : VM_global_library.vm
2016-04-17 17:17:28,950 - ResourceManager : unable to find resource 'VM_global_library.vm' in any resource loader.
2016-04-17 17:17:28,951 - Velocimacro : error using  VM library template VM_global_library.vm : org.apache.velocity.exception.ResourceNotFoundException: Unable to find resource 'VM_global_library.vm'
2016-04-17 17:17:28,951 - Velocimacro :  VM library template macro registration complete.
2016-04-17 17:17:28,951 - Velocimacro : allowInline = true : VMs can be defined inline in templates
2016-04-17 17:17:28,951 - Velocimacro : allowInlineToOverride = false : VMs defined inline may NOT replace previous VM definitions
2016-04-17 17:17:28,951 - Velocimacro : allowInlineLocal = false : VMs defined inline will be  global in scope if allowed.
2016-04-17 17:17:28,951 - Velocimacro : messages on  : VM system will output logging messages
2016-04-17 17:17:28,951 - Velocimacro : autoload off  : VM system will not automatically reload global library macros
2016-04-17 17:17:28,951 - Velocimacro : initialization complete.
2016-04-17 17:17:28,951 - Velocity successfully started.
2016-04-17 17:18:56,173 - SimpleLog4JLogSystem initialized using logfile 'velocity.log'
2016-04-17 17:18:56,173 - ************************************************************** 
2016-04-17 17:18:56,174 - Starting Jakarta Velocity v1.4
2016-04-17 17:18:56,174 - RuntimeInstance initializing.
2016-04-17 17:18:56,174 - Default Properties File: org\apache\velocity\runtime\defaults\velocity.properties
2016-04-17 17:18:56,174 - Trying to use logger class org.apache.velocity.runtime.log.SimpleLog4JLogSystem
2016-04-17 17:18:56,174 - Using logger class org.apache.velocity.runtime.log.SimpleLog4JLogSystem
2016-04-17 17:18:56,176 - Default ResourceManager initializing. (class org.apache.velocity.runtime.resource.ResourceManagerImpl)
2016-04-17 17:18:56,178 - Resource Loader Instantiated: org.apache.velocity.runtime.resource.loader.ClasspathResourceLoader
2016-04-17 17:18:56,178 - ClasspathResourceLoader : initialization starting.
2016-04-17 17:18:56,178 - ClasspathResourceLoader : initialization complete.
2016-04-17 17:18:56,179 - ResourceCache : initialized. (class org.apache.velocity.runtime.resource.ResourceCacheImpl)
2016-04-17 17:18:56,179 - Default ResourceManager initialization complete.
2016-04-17 17:18:56,181 - Loaded System Directive: org.apache.velocity.runtime.directive.Literal
2016-04-17 17:18:56,182 - Loaded System Directive: org.apache.velocity.runtime.directive.Macro
2016-04-17 17:18:56,184 - Loaded System Directive: org.apache.velocity.runtime.directive.Parse
2016-04-17 17:18:56,185 - Loaded System Directive: org.apache.velocity.runtime.directive.Include
2016-04-17 17:18:56,186 - Loaded System Directive: org.apache.velocity.runtime.directive.Foreach
2016-04-17 17:18:56,207 - Created: 20 parsers.
2016-04-17 17:18:56,212 - Velocimacro : initialization starting.
2016-04-17 17:18:56,212 - Velocimacro : adding VMs from VM library template : VM_global_library.vm
2016-04-17 17:18:56,218 - ResourceManager : unable to find resource 'VM_global_library.vm' in any resource loader.
2016-04-17 17:18:56,218 - Velocimacro : error using  VM library template VM_global_library.vm : org.apache.velocity.exception.ResourceNotFoundException: Unable to find resource 'VM_global_library.vm'
2016-04-17 17:18:56,218 - Velocimacro :  VM library template macro registration complete.
2016-04-17 17:18:56,218 - Velocimacro : allowInline = true : VMs can be defined inline in templates
2016-04-17 17:18:56,218 - Velocimacro : allowInlineToOverride = false : VMs defined inline may NOT replace previous VM definitions
2016-04-17 17:18:56,218 - Velocimacro : allowInlineLocal = false : VMs defined inline will be  global in scope if allowed.
2016-04-17 17:18:56,218 - Velocimacro : messages on  : VM system will output logging messages
2016-04-17 17:18:56,218 - Velocimacro : autoload off  : VM system will not automatically reload global library macros
2016-04-17 17:18:56,218 - Velocimacro : initialization complete.
2016-04-17 17:18:56,218 - Velocity successfully started.
2016-04-17 17:25:24,290 - SimpleLog4JLogSystem initialized using logfile 'velocity.log'
2016-04-17 17:25:24,290 - ************************************************************** 
2016-04-17 17:25:24,290 - Starting Jakarta Velocity v1.4
2016-04-17 17:25:24,290 - RuntimeInstance initializing.
2016-04-17 17:25:24,290 - Default Properties File: org\apache\velocity\runtime\defaults\velocity.properties
2016-04-17 17:25:24,290 - Trying to use logger class org.apache.velocity.runtime.log.SimpleLog4JLogSystem
2016-04-17 17:25:24,290 - Using logger class org.apache.velocity.runtime.log.SimpleLog4JLogSystem
2016-04-17 17:25:24,293 - Default ResourceManager initializing. (class org.apache.velocity.runtime.resource.ResourceManagerImpl)
2016-04-17 17:25:24,296 - Resource Loader Instantiated: org.apache.velocity.runtime.resource.loader.ClasspathResourceLoader
2016-04-17 17:25:24,296 - ClasspathResourceLoader : initialization starting.
2016-04-17 17:25:24,296 - ClasspathResourceLoader : initialization complete.
2016-04-17 17:25:24,297 - ResourceCache : initialized. (class org.apache.velocity.runtime.resource.ResourceCacheImpl)
2016-04-17 17:25:24,297 - Default ResourceManager initialization complete.
2016-04-17 17:25:24,299 - Loaded System Directive: org.apache.velocity.runtime.directive.Literal
2016-04-17 17:25:24,300 - Loaded System Directive: org.apache.velocity.runtime.directive.Macro
2016-04-17 17:25:24,302 - Loaded System Directive: org.apache.velocity.runtime.directive.Parse
2016-04-17 17:25:24,304 - Loaded System Directive: org.apache.velocity.runtime.directive.Include
2016-04-17 17:25:24,305 - Loaded System Directive: org.apache.velocity.runtime.directive.Foreach
2016-04-17 17:25:24,326 - Created: 20 parsers.
2016-04-17 17:25:24,333 - Velocimacro : initialization starting.
2016-04-17 17:25:24,333 - Velocimacro : adding VMs from VM library template : VM_global_library.vm
2016-04-17 17:25:24,338 - ResourceManager : unable to find resource 'VM_global_library.vm' in any resource loader.
2016-04-17 17:25:24,338 - Velocimacro : error using  VM library template VM_global_library.vm : org.apache.velocity.exception.ResourceNotFoundException: Unable to find resource 'VM_global_library.vm'
2016-04-17 17:25:24,338 - Velocimacro :  VM library template macro registration complete.
2016-04-17 17:25:24,338 - Velocimacro : allowInline = true : VMs can be defined inline in templates
2016-04-17 17:25:24,338 - Velocimacro : allowInlineToOverride = false : VMs defined inline may NOT replace previous VM definitions
2016-04-17 17:25:24,338 - Velocimacro : allowInlineLocal = false : VMs defined inline will be  global in scope if allowed.
2016-04-17 17:25:24,338 - Velocimacro : messages on  : VM system will output logging messages
2016-04-17 17:25:24,338 - Velocimacro : autoload off  : VM system will not automatically reload global library macros
2016-04-17 17:25:24,338 - Velocimacro : initialization complete.
2016-04-17 17:25:24,338 - Velocity successfully started.
2016-04-17 17:29:38,302 - ResourceManager : found repast/simphony/scenario/Scenario.vt with loader org.apache.velocity.runtime.resource.loader.ClasspathResourceLoader
2016-04-17 17:29:38,812 - ResourceManager : found repast/simphony/scenario/Scenario.vt with loader org.apache.velocity.runtime.resource.loader.ClasspathResourceLoader
2016-04-17 17:29:38,975 - ResourceManager : found repast/simphony/scenario/Scenario.vt with loader org.apache.velocity.runtime.resource.loader.ClasspathResourceLoader
2016-04-17 17:29:40,226 - ResourceManager : found repast/simphony/scenario/Scenario.vt with loader org.apache.velocity.runtime.resource.loader.ClasspathResourceLoader
2016-04-17 17:29:58,336 - SimpleLog4JLogSystem initialized using logfile 'velocity.log'
2016-04-17 17:29:58,336 - ************************************************************** 
2016-04-17 17:29:58,336 - Starting Jakarta Velocity v1.4
2016-04-17 17:29:58,336 - RuntimeInstance initializing.
2016-04-17 17:29:58,336 - Default Properties File: org\apache\velocity\runtime\defaults\velocity.properties
2016-04-17 17:29:58,336 - Trying to use logger class org.apache.velocity.runtime.log.SimpleLog4JLogSystem
2016-04-17 17:29:58,336 - Using logger class org.apache.velocity.runtime.log.SimpleLog4JLogSystem
2016-04-17 17:29:58,339 - Default ResourceManager initializing. (class org.apache.velocity.runtime.resource.ResourceManagerImpl)
2016-04-17 17:29:58,341 - Resource Loader Instantiated: org.apache.velocity.runtime.resource.loader.ClasspathResourceLoader
2016-04-17 17:29:58,341 - ClasspathResourceLoader : initialization starting.
2016-04-17 17:29:58,341 - ClasspathResourceLoader : initialization complete.
2016-04-17 17:29:58,342 - ResourceCache : initialized. (class org.apache.velocity.runtime.resource.ResourceCacheImpl)
2016-04-17 17:29:58,342 - Default ResourceManager initialization complete.
2016-04-17 17:29:58,344 - Loaded System Directive: org.apache.velocity.runtime.directive.Literal
2016-04-17 17:29:58,345 - Loaded System Directive: org.apache.velocity.runtime.directive.Macro
2016-04-17 17:29:58,347 - Loaded System Directive: org.apache.velocity.runtime.directive.Parse
2016-04-17 17:29:58,349 - Loaded System Directive: org.apache.velocity.runtime.directive.Include
2016-04-17 17:29:58,350 - Loaded System Directive: org.apache.velocity.runtime.directive.Foreach
2016-04-17 17:29:58,369 - Created: 20 parsers.
2016-04-17 17:29:58,374 - Velocimacro : initialization starting.
2016-04-17 17:29:58,375 - Velocimacro : adding VMs from VM library template : VM_global_library.vm
2016-04-17 17:29:58,380 - ResourceManager : unable to find resource 'VM_global_library.vm' in any resource loader.
2016-04-17 17:29:58,380 - Velocimacro : error using  VM library template VM_global_library.vm : org.apache.velocity.exception.ResourceNotFoundException: Unable to find resource 'VM_global_library.vm'
2016-04-17 17:29:58,380 - Velocimacro :  VM library template macro registration complete.
2016-04-17 17:29:58,380 - Velocimacro : allowInline = true : VMs can be defined inline in templates
2016-04-17 17:29:58,380 - Velocimacro : allowInlineToOverride = false : VMs defined inline may NOT replace previous VM definitions
2016-04-17 17:29:58,380 - Velocimacro : allowInlineLocal = false : VMs defined inline will be  global in scope if allowed.
2016-04-17 17:29:58,380 - Velocimacro : messages on  : VM system will output logging messages
2016-04-17 17:29:58,380 - Velocimacro : autoload off  : VM system will not automatically reload global library macros
2016-04-17 17:29:58,380 - Velocimacro : initialization complete.
2016-04-17 17:29:58,380 - Velocity successfully started.
2016-04-17 17:31:48,724 - SimpleLog4JLogSystem initialized using logfile 'velocity.log'
2016-04-17 17:31:48,729 - ************************************************************** 
2016-04-17 17:31:48,729 - Starting Jakarta Velocity v1.4
2016-04-17 17:31:48,729 - RuntimeInstance initializing.
2016-04-17 17:31:48,729 - Default Properties File: org\apache\velocity\runtime\defaults\velocity.properties
2016-04-17 17:31:48,729 - Trying to use logger class org.apache.velocity.runtime.log.SimpleLog4JLogSystem
2016-04-17 17:31:48,729 - Using logger class org.apache.velocity.runtime.log.SimpleLog4JLogSystem
2016-04-17 17:31:48,729 - Default ResourceManager initializing. (class org.apache.velocity.runtime.resource.ResourceManagerImpl)
2016-04-17 17:31:48,729 - Resource Loader Instantiated: org.apache.velocity.runtime.resource.loader.ClasspathResourceLoader
2016-04-17 17:31:48,729 - ClasspathResourceLoader : initialization starting.
2016-04-17 17:31:48,729 - ClasspathResourceLoader : initialization complete.
2016-04-17 17:31:48,734 - ResourceCache : initialized. (class org.apache.velocity.runtime.resource.ResourceCacheImpl)
2016-04-17 17:31:48,734 - Default ResourceManager initialization complete.
2016-04-17 17:31:48,734 - Loaded System Directive: org.apache.velocity.runtime.directive.Literal
2016-04-17 17:31:48,734 - Loaded System Directive: org.apache.velocity.runtime.directive.Macro
2016-04-17 17:31:48,739 - Loaded System Directive: org.apache.velocity.runtime.directive.Parse
2016-04-17 17:31:48,739 - Loaded System Directive: org.apache.velocity.runtime.directive.Include
2016-04-17 17:31:48,739 - Loaded System Directive: org.apache.velocity.runtime.directive.Foreach
2016-04-17 17:31:48,759 - Created: 20 parsers.
2016-04-17 17:31:48,764 - Velocimacro : initialization starting.
2016-04-17 17:31:48,764 - Velocimacro : adding VMs from VM library template : VM_global_library.vm
2016-04-17 17:31:48,769 - ResourceManager : unable to find resource 'VM_global_library.vm' in any resource loader.
2016-04-17 17:31:48,769 - Velocimacro : error using  VM library template VM_global_library.vm : org.apache.velocity.exception.ResourceNotFoundException: Unable to find resource 'VM_global_library.vm'
2016-04-17 17:31:48,769 - Velocimacro :  VM library template macro registration complete.
2016-04-17 17:31:48,769 - Velocimacro : allowInline = true : VMs can be defined inline in templates
2016-04-17 17:31:48,769 - Velocimacro : allowInlineToOverride = false : VMs defined inline may NOT replace previous VM definitions
2016-04-17 17:31:48,769 - Velocimacro : allowInlineLocal = false : VMs defined inline will be  global in scope if allowed.
2016-04-17 17:31:48,769 - Velocimacro : messages on  : VM system will output logging messages
2016-04-17 17:31:48,769 - Velocimacro : autoload off  : VM system will not automatically reload global library macros
2016-04-17 17:31:48,769 - Velocimacro : initialization complete.
2016-04-17 17:31:48,769 - Velocity successfully started.
2016-04-18 13:42:24,278 - SimpleLog4JLogSystem initialized using logfile 'velocity.log'
2016-04-18 13:42:24,315 - ************************************************************** 
2016-04-18 13:42:24,315 - Starting Jakarta Velocity v1.4
2016-04-18 13:42:24,315 - RuntimeInstance initializing.
2016-04-18 13:42:24,315 - Default Properties File: org\apache\velocity\runtime\defaults\velocity.properties
2016-04-18 13:42:24,315 - Trying to use logger class org.apache.velocity.runtime.log.SimpleLog4JLogSystem
2016-04-18 13:42:24,315 - Using logger class org.apache.velocity.runtime.log.SimpleLog4JLogSystem
2016-04-18 13:42:24,317 - Default ResourceManager initializing. (class org.apache.velocity.runtime.resource.ResourceManagerImpl)
2016-04-18 13:42:24,318 - Resource Loader Instantiated: org.apache.velocity.runtime.resource.loader.ClasspathResourceLoader
2016-04-18 13:42:24,319 - ClasspathResourceLoader : initialization starting.
2016-04-18 13:42:24,319 - ClasspathResourceLoader : initialization complete.
2016-04-18 13:42:24,319 - ResourceCache : initialized. (class org.apache.velocity.runtime.resource.ResourceCacheImpl)
2016-04-18 13:42:24,319 - Default ResourceManager initialization complete.
2016-04-18 13:42:24,321 - Loaded System Directive: org.apache.velocity.runtime.directive.Literal
2016-04-18 13:42:24,322 - Loaded System Directive: org.apache.velocity.runtime.directive.Macro
2016-04-18 13:42:24,323 - Loaded System Directive: org.apache.velocity.runtime.directive.Parse
2016-04-18 13:42:24,325 - Loaded System Directive: org.apache.velocity.runtime.directive.Include
2016-04-18 13:42:24,342 - Loaded System Directive: org.apache.velocity.runtime.directive.Foreach
2016-04-18 13:42:24,360 - Created: 20 parsers.
2016-04-18 13:42:24,364 - Velocimacro : initialization starting.
2016-04-18 13:42:24,364 - Velocimacro : adding VMs from VM library template : VM_global_library.vm
2016-04-18 13:42:24,369 - ResourceManager : unable to find resource 'VM_global_library.vm' in any resource loader.
2016-04-18 13:42:24,369 - Velocimacro : error using  VM library template VM_global_library.vm : org.apache.velocity.exception.ResourceNotFoundException: Unable to find resource 'VM_global_library.vm'
2016-04-18 13:42:24,369 - Velocimacro :  VM library template macro registration complete.
2016-04-18 13:42:24,369 - Velocimacro : allowInline = true : VMs can be defined inline in templates
2016-04-18 13:42:24,369 - Velocimacro : allowInlineToOverride = false : VMs defined inline may NOT replace previous VM definitions
2016-04-18 13:42:24,369 - Velocimacro : allowInlineLocal = false : VMs defined inline will be  global in scope if allowed.
2016-04-18 13:42:24,369 - Velocimacro : messages on  : VM system will output logging messages
2016-04-18 13:42:24,369 - Velocimacro : autoload off  : VM system will not automatically reload global library macros
2016-04-18 13:42:24,369 - Velocimacro : initialization complete.
2016-04-18 13:42:24,369 - Velocity successfully started.
2016-04-18 13:44:57,370 - SimpleLog4JLogSystem initialized using logfile 'velocity.log'
2016-04-18 13:44:57,370 - ************************************************************** 
2016-04-18 13:44:57,370 - Starting Jakarta Velocity v1.4
2016-04-18 13:44:57,370 - RuntimeInstance initializing.
2016-04-18 13:44:57,370 - Default Properties File: org\apache\velocity\runtime\defaults\velocity.properties
2016-04-18 13:44:57,370 - Trying to use logger class org.apache.velocity.runtime.log.SimpleLog4JLogSystem
2016-04-18 13:44:57,370 - Using logger class org.apache.velocity.runtime.log.SimpleLog4JLogSystem
2016-04-18 13:44:57,374 - Default ResourceManager initializing. (class org.apache.velocity.runtime.resource.ResourceManagerImpl)
2016-04-18 13:44:57,376 - Resource Loader Instantiated: org.apache.velocity.runtime.resource.loader.ClasspathResourceLoader
2016-04-18 13:44:57,376 - ClasspathResourceLoader : initialization starting.
2016-04-18 13:44:57,376 - ClasspathResourceLoader : initialization complete.
2016-04-18 13:44:57,377 - ResourceCache : initialized. (class org.apache.velocity.runtime.resource.ResourceCacheImpl)
2016-04-18 13:44:57,378 - Default ResourceManager initialization complete.
2016-04-18 13:44:57,380 - Loaded System Directive: org.apache.velocity.runtime.directive.Literal
2016-04-18 13:44:57,381 - Loaded System Directive: org.apache.velocity.runtime.directive.Macro
2016-04-18 13:44:57,383 - Loaded System Directive: org.apache.velocity.runtime.directive.Parse
2016-04-18 13:44:57,385 - Loaded System Directive: org.apache.velocity.runtime.directive.Include
2016-04-18 13:44:57,386 - Loaded System Directive: org.apache.velocity.runtime.directive.Foreach
2016-04-18 13:44:57,407 - Created: 20 parsers.
2016-04-18 13:44:57,413 - Velocimacro : initialization starting.
2016-04-18 13:44:57,413 - Velocimacro : adding VMs from VM library template : VM_global_library.vm
2016-04-18 13:44:57,419 - ResourceManager : unable to find resource 'VM_global_library.vm' in any resource loader.
2016-04-18 13:44:57,419 - Velocimacro : error using  VM library template VM_global_library.vm : org.apache.velocity.exception.ResourceNotFoundException: Unable to find resource 'VM_global_library.vm'
2016-04-18 13:44:57,419 - Velocimacro :  VM library template macro registration complete.
2016-04-18 13:44:57,419 - Velocimacro : allowInline = true : VMs can be defined inline in templates
2016-04-18 13:44:57,419 - Velocimacro : allowInlineToOverride = false : VMs defined inline may NOT replace previous VM definitions
2016-04-18 13:44:57,419 - Velocimacro : allowInlineLocal = false : VMs defined inline will be  global in scope if allowed.
2016-04-18 13:44:57,419 - Velocimacro : messages on  : VM system will output logging messages
2016-04-18 13:44:57,419 - Velocimacro : autoload off  : VM system will not automatically reload global library macros
2016-04-18 13:44:57,419 - Velocimacro : initialization complete.
2016-04-18 13:44:57,419 - Velocity successfully started.
2016-04-18 13:49:40,397 - SimpleLog4JLogSystem initialized using logfile 'velocity.log'
2016-04-18 13:49:40,397 - ************************************************************** 
2016-04-18 13:49:40,397 - Starting Jakarta Velocity v1.4
2016-04-18 13:49:40,397 - RuntimeInstance initializing.
2016-04-18 13:49:40,397 - Default Properties File: org\apache\velocity\runtime\defaults\velocity.properties
2016-04-18 13:49:40,397 - Trying to use logger class org.apache.velocity.runtime.log.SimpleLog4JLogSystem
2016-04-18 13:49:40,397 - Using logger class org.apache.velocity.runtime.log.SimpleLog4JLogSystem
2016-04-18 13:49:40,397 - Default ResourceManager initializing. (class org.apache.velocity.runtime.resource.ResourceManagerImpl)
2016-04-18 13:49:40,402 - Resource Loader Instantiated: org.apache.velocity.runtime.resource.loader.ClasspathResourceLoader
2016-04-18 13:49:40,402 - ClasspathResourceLoader : initialization starting.
2016-04-18 13:49:40,402 - ClasspathResourceLoader : initialization complete.
2016-04-18 13:49:40,402 - ResourceCache : initialized. (class org.apache.velocity.runtime.resource.ResourceCacheImpl)
2016-04-18 13:49:40,402 - Default ResourceManager initialization complete.
2016-04-18 13:49:40,402 - Loaded System Directive: org.apache.velocity.runtime.directive.Literal
2016-04-18 13:49:40,402 - Loaded System Directive: org.apache.velocity.runtime.directive.Macro
2016-04-18 13:49:40,407 - Loaded System Directive: org.apache.velocity.runtime.directive.Parse
2016-04-18 13:49:40,407 - Loaded System Directive: org.apache.velocity.runtime.directive.Include
2016-04-18 13:49:40,407 - Loaded System Directive: org.apache.velocity.runtime.directive.Foreach
2016-04-18 13:49:40,427 - Created: 20 parsers.
2016-04-18 13:49:40,432 - Velocimacro : initialization starting.
2016-04-18 13:49:40,432 - Velocimacro : adding VMs from VM library template : VM_global_library.vm
2016-04-18 13:49:40,437 - ResourceManager : unable to find resource 'VM_global_library.vm' in any resource loader.
2016-04-18 13:49:40,437 - Velocimacro : error using  VM library template VM_global_library.vm : org.apache.velocity.exception.ResourceNotFoundException: Unable to find resource 'VM_global_library.vm'
2016-04-18 13:49:40,437 - Velocimacro :  VM library template macro registration complete.
2016-04-18 13:49:40,437 - Velocimacro : allowInline = true : VMs can be defined inline in templates
2016-04-18 13:49:40,437 - Velocimacro : allowInlineToOverride = false : VMs defined inline may NOT replace previous VM definitions
2016-04-18 13:49:40,437 - Velocimacro : allowInlineLocal = false : VMs defined inline will be  global in scope if allowed.
2016-04-18 13:49:40,437 - Velocimacro : messages on  : VM system will output logging messages
2016-04-18 13:49:40,437 - Velocimacro : autoload off  : VM system will not automatically reload global library macros
2016-04-18 13:49:40,437 - Velocimacro : initialization complete.
2016-04-18 13:49:40,437 - Velocity successfully started.
2016-04-18 13:52:52,890 - SimpleLog4JLogSystem initialized using logfile 'velocity.log'
2016-04-18 13:52:52,890 - ************************************************************** 
2016-04-18 13:52:52,890 - Starting Jakarta Velocity v1.4
2016-04-18 13:52:52,890 - RuntimeInstance initializing.
2016-04-18 13:52:52,890 - Default Properties File: org\apache\velocity\runtime\defaults\velocity.properties
2016-04-18 13:52:52,890 - Trying to use logger class org.apache.velocity.runtime.log.SimpleLog4JLogSystem
2016-04-18 13:52:52,890 - Using logger class org.apache.velocity.runtime.log.SimpleLog4JLogSystem
2016-04-18 13:52:52,895 - Default ResourceManager initializing. (class org.apache.velocity.runtime.resource.ResourceManagerImpl)
2016-04-18 13:52:52,895 - Resource Loader Instantiated: org.apache.velocity.runtime.resource.loader.ClasspathResourceLoader
2016-04-18 13:52:52,895 - ClasspathResourceLoader : initialization starting.
2016-04-18 13:52:52,895 - ClasspathResourceLoader : initialization complete.
2016-04-18 13:52:52,895 - ResourceCache : initialized. (class org.apache.velocity.runtime.resource.ResourceCacheImpl)
2016-04-18 13:52:52,895 - Default ResourceManager initialization complete.
2016-04-18 13:52:52,900 - Loaded System Directive: org.apache.velocity.runtime.directive.Literal
2016-04-18 13:52:52,900 - Loaded System Directive: org.apache.velocity.runtime.directive.Macro
2016-04-18 13:52:52,900 - Loaded System Directive: org.apache.velocity.runtime.directive.Parse
2016-04-18 13:52:52,905 - Loaded System Directive: org.apache.velocity.runtime.directive.Include
2016-04-18 13:52:52,905 - Loaded System Directive: org.apache.velocity.runtime.directive.Foreach
2016-04-18 13:52:52,920 - Created: 20 parsers.
2016-04-18 13:52:52,930 - Velocimacro : initialization starting.
2016-04-18 13:52:52,930 - Velocimacro : adding VMs from VM library template : VM_global_library.vm
2016-04-18 13:52:52,935 - ResourceManager : unable to find resource 'VM_global_library.vm' in any resource loader.
2016-04-18 13:52:52,935 - Velocimacro : error using  VM library template VM_global_library.vm : org.apache.velocity.exception.ResourceNotFoundException: Unable to find resource 'VM_global_library.vm'
2016-04-18 13:52:52,935 - Velocimacro :  VM library template macro registration complete.
2016-04-18 13:52:52,935 - Velocimacro : allowInline = true : VMs can be defined inline in templates
2016-04-18 13:52:52,935 - Velocimacro : allowInlineToOverride = false : VMs defined inline may NOT replace previous VM definitions
2016-04-18 13:52:52,935 - Velocimacro : allowInlineLocal = false : VMs defined inline will be  global in scope if allowed.
2016-04-18 13:52:52,935 - Velocimacro : messages on  : VM system will output logging messages
2016-04-18 13:52:52,935 - Velocimacro : autoload off  : VM system will not automatically reload global library macros
2016-04-18 13:52:52,935 - Velocimacro : initialization complete.
2016-04-18 13:52:52,935 - Velocity successfully started.
2016-04-18 14:49:11,377 - SimpleLog4JLogSystem initialized using logfile 'velocity.log'
2016-04-18 14:49:11,377 - ************************************************************** 
2016-04-18 14:49:11,377 - Starting Jakarta Velocity v1.4
2016-04-18 14:49:11,377 - RuntimeInstance initializing.
2016-04-18 14:49:11,377 - Default Properties File: org\apache\velocity\runtime\defaults\velocity.properties
2016-04-18 14:49:11,377 - Trying to use logger class org.apache.velocity.runtime.log.SimpleLog4JLogSystem
2016-04-18 14:49:11,377 - Using logger class org.apache.velocity.runtime.log.SimpleLog4JLogSystem
2016-04-18 14:49:11,382 - Default ResourceManager initializing. (class org.apache.velocity.runtime.resource.ResourceManagerImpl)
2016-04-18 14:49:11,382 - Resource Loader Instantiated: org.apache.velocity.runtime.resource.loader.ClasspathResourceLoader
2016-04-18 14:49:11,382 - ClasspathResourceLoader : initialization starting.
2016-04-18 14:49:11,382 - ClasspathResourceLoader : initialization complete.
2016-04-18 14:49:11,382 - ResourceCache : initialized. (class org.apache.velocity.runtime.resource.ResourceCacheImpl)
2016-04-18 14:49:11,382 - Default ResourceManager initialization complete.
2016-04-18 14:49:11,387 - Loaded System Directive: org.apache.velocity.runtime.directive.Literal
2016-04-18 14:49:11,387 - Loaded System Directive: org.apache.velocity.runtime.directive.Macro
2016-04-18 14:49:11,387 - Loaded System Directive: org.apache.velocity.runtime.directive.Parse
2016-04-18 14:49:11,392 - Loaded System Directive: org.apache.velocity.runtime.directive.Include
2016-04-18 14:49:11,392 - Loaded System Directive: org.apache.velocity.runtime.directive.Foreach
2016-04-18 14:49:11,407 - Created: 20 parsers.
2016-04-18 14:49:11,412 - Velocimacro : initialization starting.
2016-04-18 14:49:11,412 - Velocimacro : adding VMs from VM library template : VM_global_library.vm
2016-04-18 14:49:11,422 - ResourceManager : unable to find resource 'VM_global_library.vm' in any resource loader.
2016-04-18 14:49:11,422 - Velocimacro : error using  VM library template VM_global_library.vm : org.apache.velocity.exception.ResourceNotFoundException: Unable to find resource 'VM_global_library.vm'
2016-04-18 14:49:11,422 - Velocimacro :  VM library template macro registration complete.
2016-04-18 14:49:11,422 - Velocimacro : allowInline = true : VMs can be defined inline in templates
2016-04-18 14:49:11,422 - Velocimacro : allowInlineToOverride = false : VMs defined inline may NOT replace previous VM definitions
2016-04-18 14:49:11,422 - Velocimacro : allowInlineLocal = false : VMs defined inline will be  global in scope if allowed.
2016-04-18 14:49:11,422 - Velocimacro : messages on  : VM system will output logging messages
2016-04-18 14:49:11,422 - Velocimacro : autoload off  : VM system will not automatically reload global library macros
2016-04-18 14:49:11,422 - Velocimacro : initialization complete.
2016-04-18 14:49:11,422 - Velocity successfully started.
2016-04-18 16:05:41,990 - ResourceManager : found repast/simphony/scenario/Scenario.vt with loader org.apache.velocity.runtime.resource.loader.ClasspathResourceLoader
2016-04-18 16:07:14,048 - SimpleLog4JLogSystem initialized using logfile 'velocity.log'
2016-04-18 16:07:14,048 - ************************************************************** 
2016-04-18 16:07:14,048 - Starting Jakarta Velocity v1.4
2016-04-18 16:07:14,048 - RuntimeInstance initializing.
2016-04-18 16:07:14,048 - Default Properties File: org\apache\velocity\runtime\defaults\velocity.properties
2016-04-18 16:07:14,048 - Trying to use logger class org.apache.velocity.runtime.log.SimpleLog4JLogSystem
2016-04-18 16:07:14,048 - Using logger class org.apache.velocity.runtime.log.SimpleLog4JLogSystem
2016-04-18 16:07:14,053 - Default ResourceManager initializing. (class org.apache.velocity.runtime.resource.ResourceManagerImpl)
2016-04-18 16:07:14,053 - Resource Loader Instantiated: org.apache.velocity.runtime.resource.loader.ClasspathResourceLoader
2016-04-18 16:07:14,053 - ClasspathResourceLoader : initialization starting.
2016-04-18 16:07:14,053 - ClasspathResourceLoader : initialization complete.
2016-04-18 16:07:14,058 - ResourceCache : initialized. (class org.apache.velocity.runtime.resource.ResourceCacheImpl)
2016-04-18 16:07:14,058 - Default ResourceManager initialization complete.
2016-04-18 16:07:14,058 - Loaded System Directive: org.apache.velocity.runtime.directive.Literal
2016-04-18 16:07:14,058 - Loaded System Directive: org.apache.velocity.runtime.directive.Macro
2016-04-18 16:07:14,058 - Loaded System Directive: org.apache.velocity.runtime.directive.Parse
2016-04-18 16:07:14,063 - Loaded System Directive: org.apache.velocity.runtime.directive.Include
2016-04-18 16:07:14,063 - Loaded System Directive: org.apache.velocity.runtime.directive.Foreach
2016-04-18 16:07:14,083 - Created: 20 parsers.
2016-04-18 16:07:14,088 - Velocimacro : initialization starting.
2016-04-18 16:07:14,088 - Velocimacro : adding VMs from VM library template : VM_global_library.vm
2016-04-18 16:07:14,093 - ResourceManager : unable to find resource 'VM_global_library.vm' in any resource loader.
2016-04-18 16:07:14,093 - Velocimacro : error using  VM library template VM_global_library.vm : org.apache.velocity.exception.ResourceNotFoundException: Unable to find resource 'VM_global_library.vm'
2016-04-18 16:07:14,093 - Velocimacro :  VM library template macro registration complete.
2016-04-18 16:07:14,093 - Velocimacro : allowInline = true : VMs can be defined inline in templates
2016-04-18 16:07:14,093 - Velocimacro : allowInlineToOverride = false : VMs defined inline may NOT replace previous VM definitions
2016-04-18 16:07:14,093 - Velocimacro : allowInlineLocal = false : VMs defined inline will be  global in scope if allowed.
2016-04-18 16:07:14,093 - Velocimacro : messages on  : VM system will output logging messages
2016-04-18 16:07:14,093 - Velocimacro : autoload off  : VM system will not automatically reload global library macros
2016-04-18 16:07:14,093 - Velocimacro : initialization complete.
2016-04-18 16:07:14,093 - Velocity successfully started.
2016-04-18 16:10:17,075 - SimpleLog4JLogSystem initialized using logfile 'velocity.log'
2016-04-18 16:10:17,075 - ************************************************************** 
2016-04-18 16:10:17,075 - Starting Jakarta Velocity v1.4
2016-04-18 16:10:17,075 - RuntimeInstance initializing.
2016-04-18 16:10:17,075 - Default Properties File: org\apache\velocity\runtime\defaults\velocity.properties
2016-04-18 16:10:17,075 - Trying to use logger class org.apache.velocity.runtime.log.SimpleLog4JLogSystem
2016-04-18 16:10:17,075 - Using logger class org.apache.velocity.runtime.log.SimpleLog4JLogSystem
2016-04-18 16:10:17,075 - Default ResourceManager initializing. (class org.apache.velocity.runtime.resource.ResourceManagerImpl)
2016-04-18 16:10:17,080 - Resource Loader Instantiated: org.apache.velocity.runtime.resource.loader.ClasspathResourceLoader
2016-04-18 16:10:17,080 - ClasspathResourceLoader : initialization starting.
2016-04-18 16:10:17,080 - ClasspathResourceLoader : initialization complete.
2016-04-18 16:10:17,080 - ResourceCache : initialized. (class org.apache.velocity.runtime.resource.ResourceCacheImpl)
2016-04-18 16:10:17,080 - Default ResourceManager initialization complete.
2016-04-18 16:10:17,080 - Loaded System Directive: org.apache.velocity.runtime.directive.Literal
2016-04-18 16:10:17,085 - Loaded System Directive: org.apache.velocity.runtime.directive.Macro
2016-04-18 16:10:17,085 - Loaded System Directive: org.apache.velocity.runtime.directive.Parse
2016-04-18 16:10:17,085 - Loaded System Directive: org.apache.velocity.runtime.directive.Include
2016-04-18 16:10:17,090 - Loaded System Directive: org.apache.velocity.runtime.directive.Foreach
2016-04-18 16:10:17,105 - Created: 20 parsers.
2016-04-18 16:10:17,115 - Velocimacro : initialization starting.
2016-04-18 16:10:17,115 - Velocimacro : adding VMs from VM library template : VM_global_library.vm
2016-04-18 16:10:17,120 - ResourceManager : unable to find resource 'VM_global_library.vm' in any resource loader.
2016-04-18 16:10:17,120 - Velocimacro : error using  VM library template VM_global_library.vm : org.apache.velocity.exception.ResourceNotFoundException: Unable to find resource 'VM_global_library.vm'
2016-04-18 16:10:17,120 - Velocimacro :  VM library template macro registration complete.
2016-04-18 16:10:17,120 - Velocimacro : allowInline = true : VMs can be defined inline in templates
2016-04-18 16:10:17,120 - Velocimacro : allowInlineToOverride = false : VMs defined inline may NOT replace previous VM definitions
2016-04-18 16:10:17,120 - Velocimacro : allowInlineLocal = false : VMs defined inline will be  global in scope if allowed.
2016-04-18 16:10:17,120 - Velocimacro : messages on  : VM system will output logging messages
2016-04-18 16:10:17,120 - Velocimacro : autoload off  : VM system will not automatically reload global library macros
2016-04-18 16:10:17,120 - Velocimacro : initialization complete.
2016-04-18 16:10:17,120 - Velocity successfully started.
2016-04-18 16:11:54,877 - SimpleLog4JLogSystem initialized using logfile 'velocity.log'
2016-04-18 16:11:54,878 - ************************************************************** 
2016-04-18 16:11:54,878 - Starting Jakarta Velocity v1.4
2016-04-18 16:11:54,878 - RuntimeInstance initializing.
2016-04-18 16:11:54,878 - Default Properties File: org\apache\velocity\runtime\defaults\velocity.properties
2016-04-18 16:11:54,878 - Trying to use logger class org.apache.velocity.runtime.log.SimpleLog4JLogSystem
2016-04-18 16:11:54,878 - Using logger class org.apache.velocity.runtime.log.SimpleLog4JLogSystem
2016-04-18 16:11:54,881 - Default ResourceManager initializing. (class org.apache.velocity.runtime.resource.ResourceManagerImpl)
2016-04-18 16:11:54,883 - Resource Loader Instantiated: org.apache.velocity.runtime.resource.loader.ClasspathResourceLoader
2016-04-18 16:11:54,883 - ClasspathResourceLoader : initialization starting.
2016-04-18 16:11:54,883 - ClasspathResourceLoader : initialization complete.
2016-04-18 16:11:54,884 - ResourceCache : initialized. (class org.apache.velocity.runtime.resource.ResourceCacheImpl)
2016-04-18 16:11:54,884 - Default ResourceManager initialization complete.
2016-04-18 16:11:54,886 - Loaded System Directive: org.apache.velocity.runtime.directive.Literal
2016-04-18 16:11:54,887 - Loaded System Directive: org.apache.velocity.runtime.directive.Macro
2016-04-18 16:11:54,889 - Loaded System Directive: org.apache.velocity.runtime.directive.Parse
2016-04-18 16:11:54,891 - Loaded System Directive: org.apache.velocity.runtime.directive.Include
2016-04-18 16:11:54,892 - Loaded System Directive: org.apache.velocity.runtime.directive.Foreach
2016-04-18 16:11:54,944 - Created: 20 parsers.
2016-04-18 16:11:54,950 - Velocimacro : initialization starting.
2016-04-18 16:11:54,950 - Velocimacro : adding VMs from VM library template : VM_global_library.vm
2016-04-18 16:11:54,956 - ResourceManager : unable to find resource 'VM_global_library.vm' in any resource loader.
2016-04-18 16:11:54,956 - Velocimacro : error using  VM library template VM_global_library.vm : org.apache.velocity.exception.ResourceNotFoundException: Unable to find resource 'VM_global_library.vm'
2016-04-18 16:11:54,956 - Velocimacro :  VM library template macro registration complete.
2016-04-18 16:11:54,956 - Velocimacro : allowInline = true : VMs can be defined inline in templates
2016-04-18 16:11:54,956 - Velocimacro : allowInlineToOverride = false : VMs defined inline may NOT replace previous VM definitions
2016-04-18 16:11:54,956 - Velocimacro : allowInlineLocal = false : VMs defined inline will be  global in scope if allowed.
2016-04-18 16:11:54,956 - Velocimacro : messages on  : VM system will output logging messages
2016-04-18 16:11:54,956 - Velocimacro : autoload off  : VM system will not automatically reload global library macros
2016-04-18 16:11:54,956 - Velocimacro : initialization complete.
2016-04-18 16:11:54,956 - Velocity successfully started.
2016-04-18 20:26:05,817 - SimpleLog4JLogSystem initialized using logfile 'velocity.log'
2016-04-18 20:26:05,817 - ************************************************************** 
2016-04-18 20:26:05,817 - Starting Jakarta Velocity v1.4
2016-04-18 20:26:05,817 - RuntimeInstance initializing.
2016-04-18 20:26:05,817 - Default Properties File: org\apache\velocity\runtime\defaults\velocity.properties
2016-04-18 20:26:05,817 - Trying to use logger class org.apache.velocity.runtime.log.SimpleLog4JLogSystem
2016-04-18 20:26:05,817 - Using logger class org.apache.velocity.runtime.log.SimpleLog4JLogSystem
2016-04-18 20:26:05,822 - Default ResourceManager initializing. (class org.apache.velocity.runtime.resource.ResourceManagerImpl)
2016-04-18 20:26:05,822 - Resource Loader Instantiated: org.apache.velocity.runtime.resource.loader.ClasspathResourceLoader
2016-04-18 20:26:05,822 - ClasspathResourceLoader : initialization starting.
2016-04-18 20:26:05,822 - ClasspathResourceLoader : initialization complete.
2016-04-18 20:26:05,822 - ResourceCache : initialized. (class org.apache.velocity.runtime.resource.ResourceCacheImpl)
2016-04-18 20:26:05,822 - Default ResourceManager initialization complete.
2016-04-18 20:26:05,827 - Loaded System Directive: org.apache.velocity.runtime.directive.Literal
2016-04-18 20:26:05,827 - Loaded System Directive: org.apache.velocity.runtime.directive.Macro
2016-04-18 20:26:05,827 - Loaded System Directive: org.apache.velocity.runtime.directive.Parse
2016-04-18 20:26:05,832 - Loaded System Directive: org.apache.velocity.runtime.directive.Include
2016-04-18 20:26:05,832 - Loaded System Directive: org.apache.velocity.runtime.directive.Foreach
2016-04-18 20:26:05,847 - Created: 20 parsers.
2016-04-18 20:26:05,852 - Velocimacro : initialization starting.
2016-04-18 20:26:05,852 - Velocimacro : adding VMs from VM library template : VM_global_library.vm
2016-04-18 20:26:05,857 - ResourceManager : unable to find resource 'VM_global_library.vm' in any resource loader.
2016-04-18 20:26:05,862 - Velocimacro : error using  VM library template VM_global_library.vm : org.apache.velocity.exception.ResourceNotFoundException: Unable to find resource 'VM_global_library.vm'
2016-04-18 20:26:05,862 - Velocimacro :  VM library template macro registration complete.
2016-04-18 20:26:05,862 - Velocimacro : allowInline = true : VMs can be defined inline in templates
2016-04-18 20:26:05,862 - Velocimacro : allowInlineToOverride = false : VMs defined inline may NOT replace previous VM definitions
2016-04-18 20:26:05,862 - Velocimacro : allowInlineLocal = false : VMs defined inline will be  global in scope if allowed.
2016-04-18 20:26:05,862 - Velocimacro : messages on  : VM system will output logging messages
2016-04-18 20:26:05,862 - Velocimacro : autoload off  : VM system will not automatically reload global library macros
2016-04-18 20:26:05,862 - Velocimacro : initialization complete.
2016-04-18 20:26:05,862 - Velocity successfully started.
2016-04-18 21:22:22,959 - SimpleLog4JLogSystem initialized using logfile 'velocity.log'
2016-04-18 21:22:22,959 - ************************************************************** 
2016-04-18 21:22:22,959 - Starting Jakarta Velocity v1.4
2016-04-18 21:22:22,959 - RuntimeInstance initializing.
2016-04-18 21:22:22,959 - Default Properties File: org\apache\velocity\runtime\defaults\velocity.properties
2016-04-18 21:22:22,959 - Trying to use logger class org.apache.velocity.runtime.log.SimpleLog4JLogSystem
2016-04-18 21:22:22,959 - Using logger class org.apache.velocity.runtime.log.SimpleLog4JLogSystem
2016-04-18 21:22:22,964 - Default ResourceManager initializing. (class org.apache.velocity.runtime.resource.ResourceManagerImpl)
2016-04-18 21:22:22,964 - Resource Loader Instantiated: org.apache.velocity.runtime.resource.loader.ClasspathResourceLoader
2016-04-18 21:22:22,964 - ClasspathResourceLoader : initialization starting.
2016-04-18 21:22:22,964 - ClasspathResourceLoader : initialization complete.
2016-04-18 21:22:22,964 - ResourceCache : initialized. (class org.apache.velocity.runtime.resource.ResourceCacheImpl)
2016-04-18 21:22:22,964 - Default ResourceManager initialization complete.
2016-04-18 21:22:22,964 - Loaded System Directive: org.apache.velocity.runtime.directive.Literal
2016-04-18 21:22:22,969 - Loaded System Directive: org.apache.velocity.runtime.directive.Macro
2016-04-18 21:22:22,969 - Loaded System Directive: org.apache.velocity.runtime.directive.Parse
2016-04-18 21:22:22,969 - Loaded System Directive: org.apache.velocity.runtime.directive.Include
2016-04-18 21:22:22,969 - Loaded System Directive: org.apache.velocity.runtime.directive.Foreach
2016-04-18 21:22:22,989 - Created: 20 parsers.
2016-04-18 21:22:22,994 - Velocimacro : initialization starting.
2016-04-18 21:22:22,994 - Velocimacro : adding VMs from VM library template : VM_global_library.vm
2016-04-18 21:22:22,999 - ResourceManager : unable to find resource 'VM_global_library.vm' in any resource loader.
2016-04-18 21:22:22,999 - Velocimacro : error using  VM library template VM_global_library.vm : org.apache.velocity.exception.ResourceNotFoundException: Unable to find resource 'VM_global_library.vm'
2016-04-18 21:22:22,999 - Velocimacro :  VM library template macro registration complete.
2016-04-18 21:22:22,999 - Velocimacro : allowInline = true : VMs can be defined inline in templates
2016-04-18 21:22:22,999 - Velocimacro : allowInlineToOverride = false : VMs defined inline may NOT replace previous VM definitions
2016-04-18 21:22:22,999 - Velocimacro : allowInlineLocal = false : VMs defined inline will be  global in scope if allowed.
2016-04-18 21:22:22,999 - Velocimacro : messages on  : VM system will output logging messages
2016-04-18 21:22:22,999 - Velocimacro : autoload off  : VM system will not automatically reload global library macros
2016-04-18 21:22:22,999 - Velocimacro : initialization complete.
2016-04-18 21:22:22,999 - Velocity successfully started.
2016-05-10 16:40:34,618 - SimpleLog4JLogSystem initialized using logfile 'velocity.log'
2016-05-10 16:40:34,618 - ************************************************************** 
2016-05-10 16:40:34,619 - Starting Jakarta Velocity v1.4
2016-05-10 16:40:34,619 - RuntimeInstance initializing.
2016-05-10 16:40:34,619 - Default Properties File: org\apache\velocity\runtime\defaults\velocity.properties
2016-05-10 16:40:34,619 - Trying to use logger class org.apache.velocity.runtime.log.SimpleLog4JLogSystem
2016-05-10 16:40:34,619 - Using logger class org.apache.velocity.runtime.log.SimpleLog4JLogSystem
2016-05-10 16:40:34,620 - Default ResourceManager initializing. (class org.apache.velocity.runtime.resource.ResourceManagerImpl)
2016-05-10 16:40:34,622 - Resource Loader Instantiated: org.apache.velocity.runtime.resource.loader.ClasspathResourceLoader
2016-05-10 16:40:34,622 - ClasspathResourceLoader : initialization starting.
2016-05-10 16:40:34,622 - ClasspathResourceLoader : initialization complete.
2016-05-10 16:40:34,623 - ResourceCache : initialized. (class org.apache.velocity.runtime.resource.ResourceCacheImpl)
2016-05-10 16:40:34,623 - Default ResourceManager initialization complete.
2016-05-10 16:40:34,625 - Loaded System Directive: org.apache.velocity.runtime.directive.Literal
2016-05-10 16:40:34,626 - Loaded System Directive: org.apache.velocity.runtime.directive.Macro
2016-05-10 16:40:34,627 - Loaded System Directive: org.apache.velocity.runtime.directive.Parse
2016-05-10 16:40:34,628 - Loaded System Directive: org.apache.velocity.runtime.directive.Include
2016-05-10 16:40:34,629 - Loaded System Directive: org.apache.velocity.runtime.directive.Foreach
2016-05-10 16:40:34,645 - Created: 20 parsers.
2016-05-10 16:40:34,649 - Velocimacro : initialization starting.
2016-05-10 16:40:34,649 - Velocimacro : adding VMs from VM library template : VM_global_library.vm
2016-05-10 16:40:34,654 - ResourceManager : unable to find resource 'VM_global_library.vm' in any resource loader.
2016-05-10 16:40:34,654 - Velocimacro : error using  VM library template VM_global_library.vm : org.apache.velocity.exception.ResourceNotFoundException: Unable to find resource 'VM_global_library.vm'
2016-05-10 16:40:34,654 - Velocimacro :  VM library template macro registration complete.
2016-05-10 16:40:34,654 - Velocimacro : allowInline = true : VMs can be defined inline in templates
2016-05-10 16:40:34,654 - Velocimacro : allowInlineToOverride = false : VMs defined inline may NOT replace previous VM definitions
2016-05-10 16:40:34,654 - Velocimacro : allowInlineLocal = false : VMs defined inline will be  global in scope if allowed.
2016-05-10 16:40:34,654 - Velocimacro : messages on  : VM system will output logging messages
2016-05-10 16:40:34,654 - Velocimacro : autoload off  : VM system will not automatically reload global library macros
2016-05-10 16:40:34,654 - Velocimacro : initialization complete.
2016-05-10 16:40:34,654 - Velocity successfully started.
2016-05-10 16:45:09,565 - SimpleLog4JLogSystem initialized using logfile 'velocity.log'
2016-05-10 16:45:09,565 - ************************************************************** 
2016-05-10 16:45:09,565 - Starting Jakarta Velocity v1.4
2016-05-10 16:45:09,565 - RuntimeInstance initializing.
2016-05-10 16:45:09,566 - Default Properties File: org\apache\velocity\runtime\defaults\velocity.properties
2016-05-10 16:45:09,566 - Trying to use logger class org.apache.velocity.runtime.log.SimpleLog4JLogSystem
2016-05-10 16:45:09,566 - Using logger class org.apache.velocity.runtime.log.SimpleLog4JLogSystem
2016-05-10 16:45:09,568 - Default ResourceManager initializing. (class org.apache.velocity.runtime.resource.ResourceManagerImpl)
2016-05-10 16:45:09,570 - Resource Loader Instantiated: org.apache.velocity.runtime.resource.loader.ClasspathResourceLoader
2016-05-10 16:45:09,570 - ClasspathResourceLoader : initialization starting.
2016-05-10 16:45:09,570 - ClasspathResourceLoader : initialization complete.
2016-05-10 16:45:09,571 - ResourceCache : initialized. (class org.apache.velocity.runtime.resource.ResourceCacheImpl)
2016-05-10 16:45:09,571 - Default ResourceManager initialization complete.
2016-05-10 16:45:09,573 - Loaded System Directive: org.apache.velocity.runtime.directive.Literal
2016-05-10 16:45:09,574 - Loaded System Directive: org.apache.velocity.runtime.directive.Macro
2016-05-10 16:45:09,576 - Loaded System Directive: org.apache.velocity.runtime.directive.Parse
2016-05-10 16:45:09,577 - Loaded System Directive: org.apache.velocity.runtime.directive.Include
2016-05-10 16:45:09,578 - Loaded System Directive: org.apache.velocity.runtime.directive.Foreach
2016-05-10 16:45:09,596 - Created: 20 parsers.
2016-05-10 16:45:09,602 - Velocimacro : initialization starting.
2016-05-10 16:45:09,602 - Velocimacro : adding VMs from VM library template : VM_global_library.vm
2016-05-10 16:45:09,607 - ResourceManager : unable to find resource 'VM_global_library.vm' in any resource loader.
2016-05-10 16:45:09,607 - Velocimacro : error using  VM library template VM_global_library.vm : org.apache.velocity.exception.ResourceNotFoundException: Unable to find resource 'VM_global_library.vm'
2016-05-10 16:45:09,607 - Velocimacro :  VM library template macro registration complete.
2016-05-10 16:45:09,607 - Velocimacro : allowInline = true : VMs can be defined inline in templates
2016-05-10 16:45:09,608 - Velocimacro : allowInlineToOverride = false : VMs defined inline may NOT replace previous VM definitions
2016-05-10 16:45:09,608 - Velocimacro : allowInlineLocal = false : VMs defined inline will be  global in scope if allowed.
2016-05-10 16:45:09,608 - Velocimacro : messages on  : VM system will output logging messages
2016-05-10 16:45:09,608 - Velocimacro : autoload off  : VM system will not automatically reload global library macros
2016-05-10 16:45:09,608 - Velocimacro : initialization complete.
2016-05-10 16:45:09,608 - Velocity successfully started.
2016-05-10 16:45:34,114 - SimpleLog4JLogSystem initialized using logfile 'velocity.log'
2016-05-10 16:45:34,114 - ************************************************************** 
2016-05-10 16:45:34,114 - Starting Jakarta Velocity v1.4
2016-05-10 16:45:34,114 - RuntimeInstance initializing.
2016-05-10 16:45:34,114 - Default Properties File: org\apache\velocity\runtime\defaults\velocity.properties
2016-05-10 16:45:34,114 - Trying to use logger class org.apache.velocity.runtime.log.SimpleLog4JLogSystem
2016-05-10 16:45:34,114 - Using logger class org.apache.velocity.runtime.log.SimpleLog4JLogSystem
2016-05-10 16:45:34,116 - Default ResourceManager initializing. (class org.apache.velocity.runtime.resource.ResourceManagerImpl)
2016-05-10 16:45:34,118 - Resource Loader Instantiated: org.apache.velocity.runtime.resource.loader.ClasspathResourceLoader
2016-05-10 16:45:34,118 - ClasspathResourceLoader : initialization starting.
2016-05-10 16:45:34,118 - ClasspathResourceLoader : initialization complete.
2016-05-10 16:45:34,120 - ResourceCache : initialized. (class org.apache.velocity.runtime.resource.ResourceCacheImpl)
2016-05-10 16:45:34,120 - Default ResourceManager initialization complete.
2016-05-10 16:45:34,121 - Loaded System Directive: org.apache.velocity.runtime.directive.Literal
2016-05-10 16:45:34,123 - Loaded System Directive: org.apache.velocity.runtime.directive.Macro
2016-05-10 16:45:34,125 - Loaded System Directive: org.apache.velocity.runtime.directive.Parse
2016-05-10 16:45:34,126 - Loaded System Directive: org.apache.velocity.runtime.directive.Include
2016-05-10 16:45:34,127 - Loaded System Directive: org.apache.velocity.runtime.directive.Foreach
2016-05-10 16:45:34,146 - Created: 20 parsers.
2016-05-10 16:45:34,153 - Velocimacro : initialization starting.
2016-05-10 16:45:34,153 - Velocimacro : adding VMs from VM library template : VM_global_library.vm
2016-05-10 16:45:34,158 - ResourceManager : unable to find resource 'VM_global_library.vm' in any resource loader.
2016-05-10 16:45:34,158 - Velocimacro : error using  VM library template VM_global_library.vm : org.apache.velocity.exception.ResourceNotFoundException: Unable to find resource 'VM_global_library.vm'
2016-05-10 16:45:34,158 - Velocimacro :  VM library template macro registration complete.
2016-05-10 16:45:34,158 - Velocimacro : allowInline = true : VMs can be defined inline in templates
2016-05-10 16:45:34,159 - Velocimacro : allowInlineToOverride = false : VMs defined inline may NOT replace previous VM definitions
2016-05-10 16:45:34,159 - Velocimacro : allowInlineLocal = false : VMs defined inline will be  global in scope if allowed.
2016-05-10 16:45:34,159 - Velocimacro : messages on  : VM system will output logging messages
2016-05-10 16:45:34,159 - Velocimacro : autoload off  : VM system will not automatically reload global library macros
2016-05-10 16:45:34,159 - Velocimacro : initialization complete.
2016-05-10 16:45:34,159 - Velocity successfully started.
2016-05-10 16:46:43,493 - SimpleLog4JLogSystem initialized using logfile 'velocity.log'
2016-05-10 16:46:43,493 - ************************************************************** 
2016-05-10 16:46:43,493 - Starting Jakarta Velocity v1.4
2016-05-10 16:46:43,493 - RuntimeInstance initializing.
2016-05-10 16:46:43,493 - Default Properties File: org\apache\velocity\runtime\defaults\velocity.properties
2016-05-10 16:46:43,493 - Trying to use logger class org.apache.velocity.runtime.log.SimpleLog4JLogSystem
2016-05-10 16:46:43,493 - Using logger class org.apache.velocity.runtime.log.SimpleLog4JLogSystem
2016-05-10 16:46:43,496 - Default ResourceManager initializing. (class org.apache.velocity.runtime.resource.ResourceManagerImpl)
2016-05-10 16:46:43,498 - Resource Loader Instantiated: org.apache.velocity.runtime.resource.loader.ClasspathResourceLoader
2016-05-10 16:46:43,498 - ClasspathResourceLoader : initialization starting.
2016-05-10 16:46:43,498 - ClasspathResourceLoader : initialization complete.
2016-05-10 16:46:43,499 - ResourceCache : initialized. (class org.apache.velocity.runtime.resource.ResourceCacheImpl)
2016-05-10 16:46:43,499 - Default ResourceManager initialization complete.
2016-05-10 16:46:43,501 - Loaded System Directive: org.apache.velocity.runtime.directive.Literal
2016-05-10 16:46:43,503 - Loaded System Directive: org.apache.velocity.runtime.directive.Macro
2016-05-10 16:46:43,505 - Loaded System Directive: org.apache.velocity.runtime.directive.Parse
2016-05-10 16:46:43,507 - Loaded System Directive: org.apache.velocity.runtime.directive.Include
2016-05-10 16:46:43,508 - Loaded System Directive: org.apache.velocity.runtime.directive.Foreach
2016-05-10 16:46:43,529 - Created: 20 parsers.
2016-05-10 16:46:43,535 - Velocimacro : initialization starting.
2016-05-10 16:46:43,535 - Velocimacro : adding VMs from VM library template : VM_global_library.vm
2016-05-10 16:46:43,542 - ResourceManager : unable to find resource 'VM_global_library.vm' in any resource loader.
2016-05-10 16:46:43,542 - Velocimacro : error using  VM library template VM_global_library.vm : org.apache.velocity.exception.ResourceNotFoundException: Unable to find resource 'VM_global_library.vm'
2016-05-10 16:46:43,542 - Velocimacro :  VM library template macro registration complete.
2016-05-10 16:46:43,542 - Velocimacro : allowInline = true : VMs can be defined inline in templates
2016-05-10 16:46:43,542 - Velocimacro : allowInlineToOverride = false : VMs defined inline may NOT replace previous VM definitions
2016-05-10 16:46:43,542 - Velocimacro : allowInlineLocal = false : VMs defined inline will be  global in scope if allowed.
2016-05-10 16:46:43,542 - Velocimacro : messages on  : VM system will output logging messages
2016-05-10 16:46:43,542 - Velocimacro : autoload off  : VM system will not automatically reload global library macros
2016-05-10 16:46:43,542 - Velocimacro : initialization complete.
2016-05-10 16:46:43,542 - Velocity successfully started.
2016-05-10 16:47:10,328 - SimpleLog4JLogSystem initialized using logfile 'velocity.log'
2016-05-10 16:47:10,328 - ************************************************************** 
2016-05-10 16:47:10,328 - Starting Jakarta Velocity v1.4
2016-05-10 16:47:10,328 - RuntimeInstance initializing.
2016-05-10 16:47:10,328 - Default Properties File: org\apache\velocity\runtime\defaults\velocity.properties
2016-05-10 16:47:10,328 - Trying to use logger class org.apache.velocity.runtime.log.SimpleLog4JLogSystem
2016-05-10 16:47:10,328 - Using logger class org.apache.velocity.runtime.log.SimpleLog4JLogSystem
2016-05-10 16:47:10,330 - Default ResourceManager initializing. (class org.apache.velocity.runtime.resource.ResourceManagerImpl)
2016-05-10 16:47:10,332 - Resource Loader Instantiated: org.apache.velocity.runtime.resource.loader.ClasspathResourceLoader
2016-05-10 16:47:10,332 - ClasspathResourceLoader : initialization starting.
2016-05-10 16:47:10,332 - ClasspathResourceLoader : initialization complete.
2016-05-10 16:47:10,334 - ResourceCache : initialized. (class org.apache.velocity.runtime.resource.ResourceCacheImpl)
2016-05-10 16:47:10,334 - Default ResourceManager initialization complete.
2016-05-10 16:47:10,335 - Loaded System Directive: org.apache.velocity.runtime.directive.Literal
2016-05-10 16:47:10,337 - Loaded System Directive: org.apache.velocity.runtime.directive.Macro
2016-05-10 16:47:10,339 - Loaded System Directive: org.apache.velocity.runtime.directive.Parse
2016-05-10 16:47:10,340 - Loaded System Directive: org.apache.velocity.runtime.directive.Include
2016-05-10 16:47:10,341 - Loaded System Directive: org.apache.velocity.runtime.directive.Foreach
2016-05-10 16:47:10,360 - Created: 20 parsers.
2016-05-10 16:47:10,365 - Velocimacro : initialization starting.
2016-05-10 16:47:10,365 - Velocimacro : adding VMs from VM library template : VM_global_library.vm
2016-05-10 16:47:10,371 - ResourceManager : unable to find resource 'VM_global_library.vm' in any resource loader.
2016-05-10 16:47:10,371 - Velocimacro : error using  VM library template VM_global_library.vm : org.apache.velocity.exception.ResourceNotFoundException: Unable to find resource 'VM_global_library.vm'
2016-05-10 16:47:10,371 - Velocimacro :  VM library template macro registration complete.
2016-05-10 16:47:10,371 - Velocimacro : allowInline = true : VMs can be defined inline in templates
2016-05-10 16:47:10,371 - Velocimacro : allowInlineToOverride = false : VMs defined inline may NOT replace previous VM definitions
2016-05-10 16:47:10,371 - Velocimacro : allowInlineLocal = false : VMs defined inline will be  global in scope if allowed.
2016-05-10 16:47:10,371 - Velocimacro : messages on  : VM system will output logging messages
2016-05-10 16:47:10,371 - Velocimacro : autoload off  : VM system will not automatically reload global library macros
2016-05-10 16:47:10,371 - Velocimacro : initialization complete.
2016-05-10 16:47:10,371 - Velocity successfully started.
2016-05-10 16:50:38,672 - SimpleLog4JLogSystem initialized using logfile 'velocity.log'
2016-05-10 16:50:38,672 - ************************************************************** 
2016-05-10 16:50:38,672 - Starting Jakarta Velocity v1.4
2016-05-10 16:50:38,672 - RuntimeInstance initializing.
2016-05-10 16:50:38,672 - Default Properties File: org\apache\velocity\runtime\defaults\velocity.properties
2016-05-10 16:50:38,672 - Trying to use logger class org.apache.velocity.runtime.log.SimpleLog4JLogSystem
2016-05-10 16:50:38,672 - Using logger class org.apache.velocity.runtime.log.SimpleLog4JLogSystem
2016-05-10 16:50:38,674 - Default ResourceManager initializing. (class org.apache.velocity.runtime.resource.ResourceManagerImpl)
2016-05-10 16:50:38,676 - Resource Loader Instantiated: org.apache.velocity.runtime.resource.loader.ClasspathResourceLoader
2016-05-10 16:50:38,676 - ClasspathResourceLoader : initialization starting.
2016-05-10 16:50:38,676 - ClasspathResourceLoader : initialization complete.
2016-05-10 16:50:38,678 - ResourceCache : initialized. (class org.apache.velocity.runtime.resource.ResourceCacheImpl)
2016-05-10 16:50:38,678 - Default ResourceManager initialization complete.
2016-05-10 16:50:38,679 - Loaded System Directive: org.apache.velocity.runtime.directive.Literal
2016-05-10 16:50:38,681 - Loaded System Directive: org.apache.velocity.runtime.directive.Macro
2016-05-10 16:50:38,683 - Loaded System Directive: org.apache.velocity.runtime.directive.Parse
2016-05-10 16:50:38,684 - Loaded System Directive: org.apache.velocity.runtime.directive.Include
2016-05-10 16:50:38,685 - Loaded System Directive: org.apache.velocity.runtime.directive.Foreach
2016-05-10 16:50:38,704 - Created: 20 parsers.
2016-05-10 16:50:38,709 - Velocimacro : initialization starting.
2016-05-10 16:50:38,709 - Velocimacro : adding VMs from VM library template : VM_global_library.vm
2016-05-10 16:50:38,715 - ResourceManager : unable to find resource 'VM_global_library.vm' in any resource loader.
2016-05-10 16:50:38,715 - Velocimacro : error using  VM library template VM_global_library.vm : org.apache.velocity.exception.ResourceNotFoundException: Unable to find resource 'VM_global_library.vm'
2016-05-10 16:50:38,715 - Velocimacro :  VM library template macro registration complete.
2016-05-10 16:50:38,715 - Velocimacro : allowInline = true : VMs can be defined inline in templates
2016-05-10 16:50:38,715 - Velocimacro : allowInlineToOverride = false : VMs defined inline may NOT replace previous VM definitions
2016-05-10 16:50:38,715 - Velocimacro : allowInlineLocal = false : VMs defined inline will be  global in scope if allowed.
2016-05-10 16:50:38,715 - Velocimacro : messages on  : VM system will output logging messages
2016-05-10 16:50:38,716 - Velocimacro : autoload off  : VM system will not automatically reload global library macros
2016-05-10 16:50:38,716 - Velocimacro : initialization complete.
2016-05-10 16:50:38,716 - Velocity successfully started.
2016-05-10 16:52:13,519 - SimpleLog4JLogSystem initialized using logfile 'velocity.log'
2016-05-10 16:52:13,519 - ************************************************************** 
2016-05-10 16:52:13,519 - Starting Jakarta Velocity v1.4
2016-05-10 16:52:13,519 - RuntimeInstance initializing.
2016-05-10 16:52:13,519 - Default Properties File: org\apache\velocity\runtime\defaults\velocity.properties
2016-05-10 16:52:13,519 - Trying to use logger class org.apache.velocity.runtime.log.SimpleLog4JLogSystem
2016-05-10 16:52:13,519 - Using logger class org.apache.velocity.runtime.log.SimpleLog4JLogSystem
2016-05-10 16:52:13,521 - Default ResourceManager initializing. (class org.apache.velocity.runtime.resource.ResourceManagerImpl)
2016-05-10 16:52:13,523 - Resource Loader Instantiated: org.apache.velocity.runtime.resource.loader.ClasspathResourceLoader
2016-05-10 16:52:13,523 - ClasspathResourceLoader : initialization starting.
2016-05-10 16:52:13,523 - ClasspathResourceLoader : initialization complete.
2016-05-10 16:52:13,525 - ResourceCache : initialized. (class org.apache.velocity.runtime.resource.ResourceCacheImpl)
2016-05-10 16:52:13,525 - Default ResourceManager initialization complete.
2016-05-10 16:52:13,526 - Loaded System Directive: org.apache.velocity.runtime.directive.Literal
2016-05-10 16:52:13,528 - Loaded System Directive: org.apache.velocity.runtime.directive.Macro
2016-05-10 16:52:13,530 - Loaded System Directive: org.apache.velocity.runtime.directive.Parse
2016-05-10 16:52:13,531 - Loaded System Directive: org.apache.velocity.runtime.directive.Include
2016-05-10 16:52:13,532 - Loaded System Directive: org.apache.velocity.runtime.directive.Foreach
2016-05-10 16:52:13,550 - Created: 20 parsers.
2016-05-10 16:52:13,556 - Velocimacro : initialization starting.
2016-05-10 16:52:13,556 - Velocimacro : adding VMs from VM library template : VM_global_library.vm
2016-05-10 16:52:13,561 - ResourceManager : unable to find resource 'VM_global_library.vm' in any resource loader.
2016-05-10 16:52:13,561 - Velocimacro : error using  VM library template VM_global_library.vm : org.apache.velocity.exception.ResourceNotFoundException: Unable to find resource 'VM_global_library.vm'
2016-05-10 16:52:13,561 - Velocimacro :  VM library template macro registration complete.
2016-05-10 16:52:13,561 - Velocimacro : allowInline = true : VMs can be defined inline in templates
2016-05-10 16:52:13,561 - Velocimacro : allowInlineToOverride = false : VMs defined inline may NOT replace previous VM definitions
2016-05-10 16:52:13,561 - Velocimacro : allowInlineLocal = false : VMs defined inline will be  global in scope if allowed.
2016-05-10 16:52:13,562 - Velocimacro : messages on  : VM system will output logging messages
2016-05-10 16:52:13,562 - Velocimacro : autoload off  : VM system will not automatically reload global library macros
2016-05-10 16:52:13,562 - Velocimacro : initialization complete.
2016-05-10 16:52:13,562 - Velocity successfully started.
2016-05-10 16:53:13,599 - SimpleLog4JLogSystem initialized using logfile 'velocity.log'
2016-05-10 16:53:13,599 - ************************************************************** 
2016-05-10 16:53:13,599 - Starting Jakarta Velocity v1.4
2016-05-10 16:53:13,599 - RuntimeInstance initializing.
2016-05-10 16:53:13,599 - Default Properties File: org\apache\velocity\runtime\defaults\velocity.properties
2016-05-10 16:53:13,599 - Trying to use logger class org.apache.velocity.runtime.log.SimpleLog4JLogSystem
2016-05-10 16:53:13,599 - Using logger class org.apache.velocity.runtime.log.SimpleLog4JLogSystem
2016-05-10 16:53:13,602 - Default ResourceManager initializing. (class org.apache.velocity.runtime.resource.ResourceManagerImpl)
2016-05-10 16:53:13,604 - Resource Loader Instantiated: org.apache.velocity.runtime.resource.loader.ClasspathResourceLoader
2016-05-10 16:53:13,604 - ClasspathResourceLoader : initialization starting.
2016-05-10 16:53:13,604 - ClasspathResourceLoader : initialization complete.
2016-05-10 16:53:13,605 - ResourceCache : initialized. (class org.apache.velocity.runtime.resource.ResourceCacheImpl)
2016-05-10 16:53:13,605 - Default ResourceManager initialization complete.
2016-05-10 16:53:13,606 - Loaded System Directive: org.apache.velocity.runtime.directive.Literal
2016-05-10 16:53:13,608 - Loaded System Directive: org.apache.velocity.runtime.directive.Macro
2016-05-10 16:53:13,610 - Loaded System Directive: org.apache.velocity.runtime.directive.Parse
2016-05-10 16:53:13,611 - Loaded System Directive: org.apache.velocity.runtime.directive.Include
2016-05-10 16:53:13,612 - Loaded System Directive: org.apache.velocity.runtime.directive.Foreach
2016-05-10 16:53:13,630 - Created: 20 parsers.
2016-05-10 16:53:13,636 - Velocimacro : initialization starting.
2016-05-10 16:53:13,636 - Velocimacro : adding VMs from VM library template : VM_global_library.vm
2016-05-10 16:53:13,641 - ResourceManager : unable to find resource 'VM_global_library.vm' in any resource loader.
2016-05-10 16:53:13,641 - Velocimacro : error using  VM library template VM_global_library.vm : org.apache.velocity.exception.ResourceNotFoundException: Unable to find resource 'VM_global_library.vm'
2016-05-10 16:53:13,641 - Velocimacro :  VM library template macro registration complete.
2016-05-10 16:53:13,641 - Velocimacro : allowInline = true : VMs can be defined inline in templates
2016-05-10 16:53:13,641 - Velocimacro : allowInlineToOverride = false : VMs defined inline may NOT replace previous VM definitions
2016-05-10 16:53:13,641 - Velocimacro : allowInlineLocal = false : VMs defined inline will be  global in scope if allowed.
2016-05-10 16:53:13,641 - Velocimacro : messages on  : VM system will output logging messages
2016-05-10 16:53:13,641 - Velocimacro : autoload off  : VM system will not automatically reload global library macros
2016-05-10 16:53:13,641 - Velocimacro : initialization complete.
2016-05-10 16:53:13,641 - Velocity successfully started.
2016-05-10 17:32:21,738 - SimpleLog4JLogSystem initialized using logfile 'velocity.log'
2016-05-10 17:32:21,738 - ************************************************************** 
2016-05-10 17:32:21,738 - Starting Jakarta Velocity v1.4
2016-05-10 17:32:21,738 - RuntimeInstance initializing.
2016-05-10 17:32:21,739 - Default Properties File: org\apache\velocity\runtime\defaults\velocity.properties
2016-05-10 17:32:21,739 - Trying to use logger class org.apache.velocity.runtime.log.SimpleLog4JLogSystem
2016-05-10 17:32:21,739 - Using logger class org.apache.velocity.runtime.log.SimpleLog4JLogSystem
2016-05-10 17:32:21,741 - Default ResourceManager initializing. (class org.apache.velocity.runtime.resource.ResourceManagerImpl)
2016-05-10 17:32:21,743 - Resource Loader Instantiated: org.apache.velocity.runtime.resource.loader.ClasspathResourceLoader
2016-05-10 17:32:21,743 - ClasspathResourceLoader : initialization starting.
2016-05-10 17:32:21,743 - ClasspathResourceLoader : initialization complete.
2016-05-10 17:32:21,744 - ResourceCache : initialized. (class org.apache.velocity.runtime.resource.ResourceCacheImpl)
2016-05-10 17:32:21,744 - Default ResourceManager initialization complete.
2016-05-10 17:32:21,746 - Loaded System Directive: org.apache.velocity.runtime.directive.Literal
2016-05-10 17:32:21,747 - Loaded System Directive: org.apache.velocity.runtime.directive.Macro
2016-05-10 17:32:21,749 - Loaded System Directive: org.apache.velocity.runtime.directive.Parse
2016-05-10 17:32:21,750 - Loaded System Directive: org.apache.velocity.runtime.directive.Include
2016-05-10 17:32:21,751 - Loaded System Directive: org.apache.velocity.runtime.directive.Foreach
2016-05-10 17:32:21,769 - Created: 20 parsers.
2016-05-10 17:32:21,775 - Velocimacro : initialization starting.
2016-05-10 17:32:21,775 - Velocimacro : adding VMs from VM library template : VM_global_library.vm
2016-05-10 17:32:21,780 - ResourceManager : unable to find resource 'VM_global_library.vm' in any resource loader.
2016-05-10 17:32:21,780 - Velocimacro : error using  VM library template VM_global_library.vm : org.apache.velocity.exception.ResourceNotFoundException: Unable to find resource 'VM_global_library.vm'
2016-05-10 17:32:21,780 - Velocimacro :  VM library template macro registration complete.
2016-05-10 17:32:21,780 - Velocimacro : allowInline = true : VMs can be defined inline in templates
2016-05-10 17:32:21,780 - Velocimacro : allowInlineToOverride = false : VMs defined inline may NOT replace previous VM definitions
2016-05-10 17:32:21,780 - Velocimacro : allowInlineLocal = false : VMs defined inline will be  global in scope if allowed.
2016-05-10 17:32:21,780 - Velocimacro : messages on  : VM system will output logging messages
2016-05-10 17:32:21,780 - Velocimacro : autoload off  : VM system will not automatically reload global library macros
2016-05-10 17:32:21,780 - Velocimacro : initialization complete.
2016-05-10 17:32:21,780 - Velocity successfully started.
2016-05-10 17:32:59,183 - SimpleLog4JLogSystem initialized using logfile 'velocity.log'
2016-05-10 17:32:59,183 - ************************************************************** 
2016-05-10 17:32:59,183 - Starting Jakarta Velocity v1.4
2016-05-10 17:32:59,183 - RuntimeInstance initializing.
2016-05-10 17:32:59,183 - Default Properties File: org\apache\velocity\runtime\defaults\velocity.properties
2016-05-10 17:32:59,183 - Trying to use logger class org.apache.velocity.runtime.log.SimpleLog4JLogSystem
2016-05-10 17:32:59,183 - Using logger class org.apache.velocity.runtime.log.SimpleLog4JLogSystem
2016-05-10 17:32:59,185 - Default ResourceManager initializing. (class org.apache.velocity.runtime.resource.ResourceManagerImpl)
2016-05-10 17:32:59,187 - Resource Loader Instantiated: org.apache.velocity.runtime.resource.loader.ClasspathResourceLoader
2016-05-10 17:32:59,187 - ClasspathResourceLoader : initialization starting.
2016-05-10 17:32:59,187 - ClasspathResourceLoader : initialization complete.
2016-05-10 17:32:59,188 - ResourceCache : initialized. (class org.apache.velocity.runtime.resource.ResourceCacheImpl)
2016-05-10 17:32:59,188 - Default ResourceManager initialization complete.
2016-05-10 17:32:59,190 - Loaded System Directive: org.apache.velocity.runtime.directive.Literal
2016-05-10 17:32:59,191 - Loaded System Directive: org.apache.velocity.runtime.directive.Macro
2016-05-10 17:32:59,193 - Loaded System Directive: org.apache.velocity.runtime.directive.Parse
2016-05-10 17:32:59,195 - Loaded System Directive: org.apache.velocity.runtime.directive.Include
2016-05-10 17:32:59,196 - Loaded System Directive: org.apache.velocity.runtime.directive.Foreach
2016-05-10 17:32:59,215 - Created: 20 parsers.
2016-05-10 17:32:59,220 - Velocimacro : initialization starting.
2016-05-10 17:32:59,220 - Velocimacro : adding VMs from VM library template : VM_global_library.vm
2016-05-10 17:32:59,227 - ResourceManager : unable to find resource 'VM_global_library.vm' in any resource loader.
2016-05-10 17:32:59,227 - Velocimacro : error using  VM library template VM_global_library.vm : org.apache.velocity.exception.ResourceNotFoundException: Unable to find resource 'VM_global_library.vm'
2016-05-10 17:32:59,227 - Velocimacro :  VM library template macro registration complete.
2016-05-10 17:32:59,227 - Velocimacro : allowInline = true : VMs can be defined inline in templates
2016-05-10 17:32:59,227 - Velocimacro : allowInlineToOverride = false : VMs defined inline may NOT replace previous VM definitions
2016-05-10 17:32:59,227 - Velocimacro : allowInlineLocal = false : VMs defined inline will be  global in scope if allowed.
2016-05-10 17:32:59,227 - Velocimacro : messages on  : VM system will output logging messages
2016-05-10 17:32:59,227 - Velocimacro : autoload off  : VM system will not automatically reload global library macros
2016-05-10 17:32:59,227 - Velocimacro : initialization complete.
2016-05-10 17:32:59,227 - Velocity successfully started.
2016-05-10 17:33:54,572 - SimpleLog4JLogSystem initialized using logfile 'velocity.log'
2016-05-10 17:33:54,572 - ************************************************************** 
2016-05-10 17:33:54,572 - Starting Jakarta Velocity v1.4
2016-05-10 17:33:54,572 - RuntimeInstance initializing.
2016-05-10 17:33:54,572 - Default Properties File: org\apache\velocity\runtime\defaults\velocity.properties
2016-05-10 17:33:54,572 - Trying to use logger class org.apache.velocity.runtime.log.SimpleLog4JLogSystem
2016-05-10 17:33:54,572 - Using logger class org.apache.velocity.runtime.log.SimpleLog4JLogSystem
2016-05-10 17:33:54,574 - Default ResourceManager initializing. (class org.apache.velocity.runtime.resource.ResourceManagerImpl)
2016-05-10 17:33:54,576 - Resource Loader Instantiated: org.apache.velocity.runtime.resource.loader.ClasspathResourceLoader
2016-05-10 17:33:54,576 - ClasspathResourceLoader : initialization starting.
2016-05-10 17:33:54,576 - ClasspathResourceLoader : initialization complete.
2016-05-10 17:33:54,577 - ResourceCache : initialized. (class org.apache.velocity.runtime.resource.ResourceCacheImpl)
2016-05-10 17:33:54,577 - Default ResourceManager initialization complete.
2016-05-10 17:33:54,579 - Loaded System Directive: org.apache.velocity.runtime.directive.Literal
2016-05-10 17:33:54,580 - Loaded System Directive: org.apache.velocity.runtime.directive.Macro
2016-05-10 17:33:54,582 - Loaded System Directive: org.apache.velocity.runtime.directive.Parse
2016-05-10 17:33:54,584 - Loaded System Directive: org.apache.velocity.runtime.directive.Include
2016-05-10 17:33:54,585 - Loaded System Directive: org.apache.velocity.runtime.directive.Foreach
2016-05-10 17:33:54,603 - Created: 20 parsers.
2016-05-10 17:33:54,609 - Velocimacro : initialization starting.
2016-05-10 17:33:54,609 - Velocimacro : adding VMs from VM library template : VM_global_library.vm
2016-05-10 17:33:54,614 - ResourceManager : unable to find resource 'VM_global_library.vm' in any resource loader.
2016-05-10 17:33:54,614 - Velocimacro : error using  VM library template VM_global_library.vm : org.apache.velocity.exception.ResourceNotFoundException: Unable to find resource 'VM_global_library.vm'
2016-05-10 17:33:54,614 - Velocimacro :  VM library template macro registration complete.
2016-05-10 17:33:54,614 - Velocimacro : allowInline = true : VMs can be defined inline in templates
2016-05-10 17:33:54,614 - Velocimacro : allowInlineToOverride = false : VMs defined inline may NOT replace previous VM definitions
2016-05-10 17:33:54,614 - Velocimacro : allowInlineLocal = false : VMs defined inline will be  global in scope if allowed.
2016-05-10 17:33:54,614 - Velocimacro : messages on  : VM system will output logging messages
2016-05-10 17:33:54,614 - Velocimacro : autoload off  : VM system will not automatically reload global library macros
2016-05-10 17:33:54,614 - Velocimacro : initialization complete.
2016-05-10 17:33:54,614 - Velocity successfully started.
2016-05-10 17:59:00,412 - SimpleLog4JLogSystem initialized using logfile 'velocity.log'
2016-05-10 17:59:00,412 - ************************************************************** 
2016-05-10 17:59:00,412 - Starting Jakarta Velocity v1.4
2016-05-10 17:59:00,412 - RuntimeInstance initializing.
2016-05-10 17:59:00,412 - Default Properties File: org\apache\velocity\runtime\defaults\velocity.properties
2016-05-10 17:59:00,412 - Trying to use logger class org.apache.velocity.runtime.log.SimpleLog4JLogSystem
2016-05-10 17:59:00,412 - Using logger class org.apache.velocity.runtime.log.SimpleLog4JLogSystem
2016-05-10 17:59:00,414 - Default ResourceManager initializing. (class org.apache.velocity.runtime.resource.ResourceManagerImpl)
2016-05-10 17:59:00,416 - Resource Loader Instantiated: org.apache.velocity.runtime.resource.loader.ClasspathResourceLoader
2016-05-10 17:59:00,416 - ClasspathResourceLoader : initialization starting.
2016-05-10 17:59:00,416 - ClasspathResourceLoader : initialization complete.
2016-05-10 17:59:00,418 - ResourceCache : initialized. (class org.apache.velocity.runtime.resource.ResourceCacheImpl)
2016-05-10 17:59:00,418 - Default ResourceManager initialization complete.
2016-05-10 17:59:00,419 - Loaded System Directive: org.apache.velocity.runtime.directive.Literal
2016-05-10 17:59:00,421 - Loaded System Directive: org.apache.velocity.runtime.directive.Macro
2016-05-10 17:59:00,423 - Loaded System Directive: org.apache.velocity.runtime.directive.Parse
2016-05-10 17:59:00,424 - Loaded System Directive: org.apache.velocity.runtime.directive.Include
2016-05-10 17:59:00,425 - Loaded System Directive: org.apache.velocity.runtime.directive.Foreach
2016-05-10 17:59:00,443 - Created: 20 parsers.
2016-05-10 17:59:00,449 - Velocimacro : initialization starting.
2016-05-10 17:59:00,449 - Velocimacro : adding VMs from VM library template : VM_global_library.vm
2016-05-10 17:59:00,455 - ResourceManager : unable to find resource 'VM_global_library.vm' in any resource loader.
2016-05-10 17:59:00,455 - Velocimacro : error using  VM library template VM_global_library.vm : org.apache.velocity.exception.ResourceNotFoundException: Unable to find resource 'VM_global_library.vm'
2016-05-10 17:59:00,455 - Velocimacro :  VM library template macro registration complete.
2016-05-10 17:59:00,455 - Velocimacro : allowInline = true : VMs can be defined inline in templates
2016-05-10 17:59:00,455 - Velocimacro : allowInlineToOverride = false : VMs defined inline may NOT replace previous VM definitions
2016-05-10 17:59:00,455 - Velocimacro : allowInlineLocal = false : VMs defined inline will be  global in scope if allowed.
2016-05-10 17:59:00,455 - Velocimacro : messages on  : VM system will output logging messages
2016-05-10 17:59:00,455 - Velocimacro : autoload off  : VM system will not automatically reload global library macros
2016-05-10 17:59:00,455 - Velocimacro : initialization complete.
2016-05-10 17:59:00,455 - Velocity successfully started.
2016-06-08 10:30:24,778 - SimpleLog4JLogSystem initialized using logfile 'velocity.log'
2016-06-08 10:30:24,778 - ************************************************************** 
2016-06-08 10:30:24,778 - Starting Jakarta Velocity v1.4
2016-06-08 10:30:24,778 - RuntimeInstance initializing.
2016-06-08 10:30:24,778 - Default Properties File: org\apache\velocity\runtime\defaults\velocity.properties
2016-06-08 10:30:24,778 - Trying to use logger class org.apache.velocity.runtime.log.SimpleLog4JLogSystem
2016-06-08 10:30:24,778 - Using logger class org.apache.velocity.runtime.log.SimpleLog4JLogSystem
2016-06-08 10:30:24,780 - Default ResourceManager initializing. (class org.apache.velocity.runtime.resource.ResourceManagerImpl)
2016-06-08 10:30:24,795 - Resource Loader Instantiated: org.apache.velocity.runtime.resource.loader.ClasspathResourceLoader
2016-06-08 10:30:24,795 - ClasspathResourceLoader : initialization starting.
2016-06-08 10:30:24,795 - ClasspathResourceLoader : initialization complete.
2016-06-08 10:30:24,796 - ResourceCache : initialized. (class org.apache.velocity.runtime.resource.ResourceCacheImpl)
2016-06-08 10:30:24,796 - Default ResourceManager initialization complete.
2016-06-08 10:30:24,798 - Loaded System Directive: org.apache.velocity.runtime.directive.Literal
2016-06-08 10:30:24,799 - Loaded System Directive: org.apache.velocity.runtime.directive.Macro
2016-06-08 10:30:24,801 - Loaded System Directive: org.apache.velocity.runtime.directive.Parse
2016-06-08 10:30:24,803 - Loaded System Directive: org.apache.velocity.runtime.directive.Include
2016-06-08 10:30:24,804 - Loaded System Directive: org.apache.velocity.runtime.directive.Foreach
2016-06-08 10:30:24,856 - Created: 20 parsers.
2016-06-08 10:30:24,860 - Velocimacro : initialization starting.
2016-06-08 10:30:24,860 - Velocimacro : adding VMs from VM library template : VM_global_library.vm
2016-06-08 10:30:24,866 - ResourceManager : unable to find resource 'VM_global_library.vm' in any resource loader.
2016-06-08 10:30:24,866 - Velocimacro : error using  VM library template VM_global_library.vm : org.apache.velocity.exception.ResourceNotFoundException: Unable to find resource 'VM_global_library.vm'
2016-06-08 10:30:24,866 - Velocimacro :  VM library template macro registration complete.
2016-06-08 10:30:24,866 - Velocimacro : allowInline = true : VMs can be defined inline in templates
2016-06-08 10:30:24,866 - Velocimacro : allowInlineToOverride = false : VMs defined inline may NOT replace previous VM definitions
2016-06-08 10:30:24,866 - Velocimacro : allowInlineLocal = false : VMs defined inline will be  global in scope if allowed.
2016-06-08 10:30:24,866 - Velocimacro : messages on  : VM system will output logging messages
2016-06-08 10:30:24,866 - Velocimacro : autoload off  : VM system will not automatically reload global library macros
2016-06-08 10:30:24,866 - Velocimacro : initialization complete.
2016-06-08 10:30:24,866 - Velocity successfully started.
2016-06-08 10:33:47,859 - SimpleLog4JLogSystem initialized using logfile 'velocity.log'
2016-06-08 10:33:47,882 - ************************************************************** 
2016-06-08 10:33:47,882 - Starting Jakarta Velocity v1.4
2016-06-08 10:33:47,882 - RuntimeInstance initializing.
2016-06-08 10:33:47,882 - Default Properties File: org\apache\velocity\runtime\defaults\velocity.properties
2016-06-08 10:33:47,882 - Trying to use logger class org.apache.velocity.runtime.log.SimpleLog4JLogSystem
2016-06-08 10:33:47,882 - Using logger class org.apache.velocity.runtime.log.SimpleLog4JLogSystem
2016-06-08 10:33:47,888 - Default ResourceManager initializing. (class org.apache.velocity.runtime.resource.ResourceManagerImpl)
2016-06-08 10:33:47,891 - Resource Loader Instantiated: org.apache.velocity.runtime.resource.loader.ClasspathResourceLoader
2016-06-08 10:33:47,891 - ClasspathResourceLoader : initialization starting.
2016-06-08 10:33:47,891 - ClasspathResourceLoader : initialization complete.
2016-06-08 10:33:47,892 - ResourceCache : initialized. (class org.apache.velocity.runtime.resource.ResourceCacheImpl)
2016-06-08 10:33:47,892 - Default ResourceManager initialization complete.
2016-06-08 10:33:47,894 - Loaded System Directive: org.apache.velocity.runtime.directive.Literal
2016-06-08 10:33:47,896 - Loaded System Directive: org.apache.velocity.runtime.directive.Macro
2016-06-08 10:33:47,899 - Loaded System Directive: org.apache.velocity.runtime.directive.Parse
2016-06-08 10:33:47,900 - Loaded System Directive: org.apache.velocity.runtime.directive.Include
2016-06-08 10:33:47,901 - Loaded System Directive: org.apache.velocity.runtime.directive.Foreach
2016-06-08 10:33:47,922 - Created: 20 parsers.
2016-06-08 10:33:47,928 - Velocimacro : initialization starting.
2016-06-08 10:33:47,928 - Velocimacro : adding VMs from VM library template : VM_global_library.vm
2016-06-08 10:33:47,934 - ResourceManager : unable to find resource 'VM_global_library.vm' in any resource loader.
2016-06-08 10:33:47,934 - Velocimacro : error using  VM library template VM_global_library.vm : org.apache.velocity.exception.ResourceNotFoundException: Unable to find resource 'VM_global_library.vm'
2016-06-08 10:33:47,934 - Velocimacro :  VM library template macro registration complete.
2016-06-08 10:33:47,934 - Velocimacro : allowInline = true : VMs can be defined inline in templates
2016-06-08 10:33:47,934 - Velocimacro : allowInlineToOverride = false : VMs defined inline may NOT replace previous VM definitions
2016-06-08 10:33:47,934 - Velocimacro : allowInlineLocal = false : VMs defined inline will be  global in scope if allowed.
2016-06-08 10:33:47,934 - Velocimacro : messages on  : VM system will output logging messages
2016-06-08 10:33:47,935 - Velocimacro : autoload off  : VM system will not automatically reload global library macros
2016-06-08 10:33:47,935 - Velocimacro : initialization complete.
2016-06-08 10:33:47,935 - Velocity successfully started.
2016-06-08 11:12:54,677 - SimpleLog4JLogSystem initialized using logfile 'velocity.log'
2016-06-08 11:12:54,677 - ************************************************************** 
2016-06-08 11:12:54,677 - Starting Jakarta Velocity v1.4
2016-06-08 11:12:54,677 - RuntimeInstance initializing.
2016-06-08 11:12:54,678 - Default Properties File: org\apache\velocity\runtime\defaults\velocity.properties
2016-06-08 11:12:54,678 - Trying to use logger class org.apache.velocity.runtime.log.SimpleLog4JLogSystem
2016-06-08 11:12:54,678 - Using logger class org.apache.velocity.runtime.log.SimpleLog4JLogSystem
2016-06-08 11:12:54,680 - Default ResourceManager initializing. (class org.apache.velocity.runtime.resource.ResourceManagerImpl)
2016-06-08 11:12:54,682 - Resource Loader Instantiated: org.apache.velocity.runtime.resource.loader.ClasspathResourceLoader
2016-06-08 11:12:54,682 - ClasspathResourceLoader : initialization starting.
2016-06-08 11:12:54,682 - ClasspathResourceLoader : initialization complete.
2016-06-08 11:12:54,684 - ResourceCache : initialized. (class org.apache.velocity.runtime.resource.ResourceCacheImpl)
2016-06-08 11:12:54,684 - Default ResourceManager initialization complete.
2016-06-08 11:12:54,685 - Loaded System Directive: org.apache.velocity.runtime.directive.Literal
2016-06-08 11:12:54,687 - Loaded System Directive: org.apache.velocity.runtime.directive.Macro
2016-06-08 11:12:54,690 - Loaded System Directive: org.apache.velocity.runtime.directive.Parse
2016-06-08 11:12:54,691 - Loaded System Directive: org.apache.velocity.runtime.directive.Include
2016-06-08 11:12:54,692 - Loaded System Directive: org.apache.velocity.runtime.directive.Foreach
2016-06-08 11:12:54,717 - Created: 20 parsers.
2016-06-08 11:12:54,725 - Velocimacro : initialization starting.
2016-06-08 11:12:54,726 - Velocimacro : adding VMs from VM library template : VM_global_library.vm
2016-06-08 11:12:54,732 - ResourceManager : unable to find resource 'VM_global_library.vm' in any resource loader.
2016-06-08 11:12:54,732 - Velocimacro : error using  VM library template VM_global_library.vm : org.apache.velocity.exception.ResourceNotFoundException: Unable to find resource 'VM_global_library.vm'
2016-06-08 11:12:54,732 - Velocimacro :  VM library template macro registration complete.
2016-06-08 11:12:54,732 - Velocimacro : allowInline = true : VMs can be defined inline in templates
2016-06-08 11:12:54,732 - Velocimacro : allowInlineToOverride = false : VMs defined inline may NOT replace previous VM definitions
2016-06-08 11:12:54,732 - Velocimacro : allowInlineLocal = false : VMs defined inline will be  global in scope if allowed.
2016-06-08 11:12:54,732 - Velocimacro : messages on  : VM system will output logging messages
2016-06-08 11:12:54,732 - Velocimacro : autoload off  : VM system will not automatically reload global library macros
2016-06-08 11:12:54,732 - Velocimacro : initialization complete.
2016-06-08 11:12:54,732 - Velocity successfully started.
2016-06-08 11:33:05,983 - SimpleLog4JLogSystem initialized using logfile 'velocity.log'
2016-06-08 11:33:05,998 - ************************************************************** 
2016-06-08 11:33:05,998 - Starting Jakarta Velocity v1.4
2016-06-08 11:33:05,998 - RuntimeInstance initializing.
2016-06-08 11:33:05,998 - Default Properties File: org\apache\velocity\runtime\defaults\velocity.properties
2016-06-08 11:33:05,998 - Trying to use logger class org.apache.velocity.runtime.log.SimpleLog4JLogSystem
2016-06-08 11:33:05,998 - Using logger class org.apache.velocity.runtime.log.SimpleLog4JLogSystem
2016-06-08 11:33:06,001 - Default ResourceManager initializing. (class org.apache.velocity.runtime.resource.ResourceManagerImpl)
2016-06-08 11:33:06,003 - Resource Loader Instantiated: org.apache.velocity.runtime.resource.loader.ClasspathResourceLoader
2016-06-08 11:33:06,003 - ClasspathResourceLoader : initialization starting.
2016-06-08 11:33:06,003 - ClasspathResourceLoader : initialization complete.
2016-06-08 11:33:06,004 - ResourceCache : initialized. (class org.apache.velocity.runtime.resource.ResourceCacheImpl)
2016-06-08 11:33:06,005 - Default ResourceManager initialization complete.
2016-06-08 11:33:06,006 - Loaded System Directive: org.apache.velocity.runtime.directive.Literal
2016-06-08 11:33:06,008 - Loaded System Directive: org.apache.velocity.runtime.directive.Macro
2016-06-08 11:33:06,010 - Loaded System Directive: org.apache.velocity.runtime.directive.Parse
2016-06-08 11:33:06,012 - Loaded System Directive: org.apache.velocity.runtime.directive.Include
2016-06-08 11:33:06,013 - Loaded System Directive: org.apache.velocity.runtime.directive.Foreach
2016-06-08 11:33:06,047 - Created: 20 parsers.
2016-06-08 11:33:06,053 - Velocimacro : initialization starting.
2016-06-08 11:33:06,053 - Velocimacro : adding VMs from VM library template : VM_global_library.vm
2016-06-08 11:33:06,059 - ResourceManager : unable to find resource 'VM_global_library.vm' in any resource loader.
2016-06-08 11:33:06,059 - Velocimacro : error using  VM library template VM_global_library.vm : org.apache.velocity.exception.ResourceNotFoundException: Unable to find resource 'VM_global_library.vm'
2016-06-08 11:33:06,059 - Velocimacro :  VM library template macro registration complete.
2016-06-08 11:33:06,059 - Velocimacro : allowInline = true : VMs can be defined inline in templates
2016-06-08 11:33:06,059 - Velocimacro : allowInlineToOverride = false : VMs defined inline may NOT replace previous VM definitions
2016-06-08 11:33:06,059 - Velocimacro : allowInlineLocal = false : VMs defined inline will be  global in scope if allowed.
2016-06-08 11:33:06,059 - Velocimacro : messages on  : VM system will output logging messages
2016-06-08 11:33:06,060 - Velocimacro : autoload off  : VM system will not automatically reload global library macros
2016-06-08 11:33:06,060 - Velocimacro : initialization complete.
2016-06-08 11:33:06,060 - Velocity successfully started.
2016-06-08 13:18:01,430 - SimpleLog4JLogSystem initialized using logfile 'velocity.log'
2016-06-08 13:18:01,441 - ************************************************************** 
2016-06-08 13:18:01,441 - Starting Jakarta Velocity v1.4
2016-06-08 13:18:01,441 - RuntimeInstance initializing.
2016-06-08 13:18:01,441 - Default Properties File: org\apache\velocity\runtime\defaults\velocity.properties
2016-06-08 13:18:01,441 - Trying to use logger class org.apache.velocity.runtime.log.SimpleLog4JLogSystem
2016-06-08 13:18:01,442 - Using logger class org.apache.velocity.runtime.log.SimpleLog4JLogSystem
2016-06-08 13:18:01,444 - Default ResourceManager initializing. (class org.apache.velocity.runtime.resource.ResourceManagerImpl)
2016-06-08 13:18:01,446 - Resource Loader Instantiated: org.apache.velocity.runtime.resource.loader.ClasspathResourceLoader
2016-06-08 13:18:01,447 - ClasspathResourceLoader : initialization starting.
2016-06-08 13:18:01,447 - ClasspathResourceLoader : initialization complete.
2016-06-08 13:18:01,448 - ResourceCache : initialized. (class org.apache.velocity.runtime.resource.ResourceCacheImpl)
2016-06-08 13:18:01,448 - Default ResourceManager initialization complete.
2016-06-08 13:18:01,450 - Loaded System Directive: org.apache.velocity.runtime.directive.Literal
2016-06-08 13:18:01,451 - Loaded System Directive: org.apache.velocity.runtime.directive.Macro
2016-06-08 13:18:01,454 - Loaded System Directive: org.apache.velocity.runtime.directive.Parse
2016-06-08 13:18:01,456 - Loaded System Directive: org.apache.velocity.runtime.directive.Include
2016-06-08 13:18:01,457 - Loaded System Directive: org.apache.velocity.runtime.directive.Foreach
2016-06-08 13:18:01,501 - Created: 20 parsers.
2016-06-08 13:18:01,507 - Velocimacro : initialization starting.
2016-06-08 13:18:01,507 - Velocimacro : adding VMs from VM library template : VM_global_library.vm
2016-06-08 13:18:01,513 - ResourceManager : unable to find resource 'VM_global_library.vm' in any resource loader.
2016-06-08 13:18:01,513 - Velocimacro : error using  VM library template VM_global_library.vm : org.apache.velocity.exception.ResourceNotFoundException: Unable to find resource 'VM_global_library.vm'
2016-06-08 13:18:01,513 - Velocimacro :  VM library template macro registration complete.
2016-06-08 13:18:01,513 - Velocimacro : allowInline = true : VMs can be defined inline in templates
2016-06-08 13:18:01,513 - Velocimacro : allowInlineToOverride = false : VMs defined inline may NOT replace previous VM definitions
2016-06-08 13:18:01,513 - Velocimacro : allowInlineLocal = false : VMs defined inline will be  global in scope if allowed.
